%!PS-Adobe-3.0 EPSF-3.0
%%DocumentNeededResources: font Helvetica
%%+ font Helvetica-Bold
%%+ font Helvetica-Oblique
%%+ font Helvetica-BoldOblique
%%+ font Symbol
%%Title: R Graphics Output
%%Creator: R Software
%%Pages: (atend)
%%BoundingBox: 0 0 720 576
%%EndComments
%%BeginProlog
/bp  { gs sRGB gs } def
% begin .ps.prolog
/gs  { gsave } bind def
/gr  { grestore } bind def
/ep  { showpage gr gr } bind def
/m   { moveto } bind def
/l  { rlineto } bind def
/np  { newpath } bind def
/cp  { closepath } bind def
/f   { fill } bind def
/o   { stroke } bind def
/c   { newpath 0 360 arc } bind def
/r   { 4 2 roll moveto 1 copy 3 -1 roll exch 0 exch rlineto 0 rlineto -1 mul 0 exch rlineto closepath } bind def
/p1  { stroke } bind def
/p2  { gsave bg fill grestore newpath } bind def
/p3  { gsave bg fill grestore stroke } bind def
/p6  { gsave bg eofill grestore newpath } bind def
/p7  { gsave bg eofill grestore stroke } bind def
/t   { 5 -2 roll moveto gsave rotate
       1 index stringwidth pop
       mul neg 0 rmoveto show grestore } bind def
/ta  { 4 -2 roll moveto gsave rotate show } bind def
/tb  { 2 -1 roll 0 rmoveto show } bind def
/cl  { grestore gsave newpath 3 index 3 index moveto 1 index
       4 -1 roll lineto  exch 1 index lineto lineto
       closepath clip newpath } bind def
/rgb { setrgbcolor } bind def
/s   { scalefont setfont } bind def
% end   .ps.prolog
/sRGB { [ /CIEBasedABC
          << /DecodeLMN
               [ { dup 0.03928 le
                        {12.92321 div}
                        {0.055 add 1.055 div 2.4 exp }
                     ifelse
                 } bind dup dup
               ]
             /MatrixLMN [0.412457 0.212673 0.019334
                         0.357576 0.715152 0.119192
                         0.180437 0.072175 0.950301]
             /WhitePoint [0.9505 1.0 1.0890]
           >>
         ] setcolorspace } bind def
/srgb { setcolor } bind def
% begin encoding
/WinAnsiEncoding [
 /.notdef /.notdef /.notdef /.notdef /.notdef /.notdef /.notdef /.notdef
 /.notdef /.notdef /.notdef /.notdef /.notdef /.notdef /.notdef /.notdef
 /.notdef /.notdef /.notdef /.notdef /.notdef /.notdef /.notdef /.notdef
 /.notdef /.notdef /.notdef /.notdef /.notdef /.notdef /.notdef /.notdef
 /space /exclam /quotedbl /numbersign /dollar /percent /ampersand /quoteright
 /parenleft /parenright /asterisk /plus /comma /minus /period /slash
 /zero /one /two /three /four /five /six /seven
 /eight /nine /colon /semicolon /less /equal /greater /question
 /at /A /B /C /D /E /F /G
 /H /I /J /K /L /M /N /O
 /P /Q /R /S /T /U /V /W
 /X /Y /Z /bracketleft /backslash /bracketright /asciicircum /underscore
 /grave /a /b /c /d /e /f /g
 /h /i /j /k /l /m /n /o
 /p /q /r /s /t /u /v /w
 /x /y /z /braceleft /bar /braceright /asciitilde /.notdef
 /Euro /.notdef /quotesinglbase /florin /quotedblbase /ellipsis /dagger /daggerdbl
 /circumflex /perthousand /Scaron /guilsinglleft /OE /.notdef /Zcaron /.notdef
 /.notdef /quoteleft /quoteright /quotedblleft /quotedblright /bullet /endash /emdash
 /tilde /trademark /scaron /guilsinglright /oe /.notdef /zcaron /Ydieresis
 /space /exclamdown /cent /sterling /currency /yen /brokenbar /section
 /dieresis /copyright /ordfeminine /guillemotleft /logicalnot /hyphen /registered /macron
 /degree /plusminus /twosuperior /threesuperior /acute /mu /paragraph /periodcentered
 /cedilla /onesuperior /ordmasculine /guillemotright /onequarter /onehalf /threequarters /questiondown
 /Agrave /Aacute /Acircumflex /Atilde /Adieresis /Aring /AE /Ccedilla
 /Egrave /Eacute /Ecircumflex /Edieresis /Igrave /Iacute /Icircumflex /Idieresis
 /Eth /Ntilde /Ograve /Oacute /Ocircumflex /Otilde /Odieresis /multiply
 /Oslash /Ugrave /Uacute /Ucircumflex /Udieresis /Yacute /Thorn /germandbls
 /agrave /aacute /acircumflex /atilde /adieresis /aring /ae /ccedilla
 /egrave /eacute /ecircumflex /edieresis /igrave /iacute /icircumflex /idieresis
 /eth /ntilde /ograve /oacute /ocircumflex /otilde /odieresis /divide
 /oslash /ugrave /uacute /ucircumflex /udieresis /yacute /thorn /ydieresis
]
 def
% end encoding
%%IncludeResource: font Helvetica
/Helvetica findfont
dup length dict begin
  {1 index /FID ne {def} {pop pop} ifelse} forall
  /Encoding WinAnsiEncoding def
  currentdict
  end
/Font1 exch definefont pop
%%IncludeResource: font Helvetica-Bold
/Helvetica-Bold findfont
dup length dict begin
  {1 index /FID ne {def} {pop pop} ifelse} forall
  /Encoding WinAnsiEncoding def
  currentdict
  end
/Font2 exch definefont pop
%%IncludeResource: font Helvetica-Oblique
/Helvetica-Oblique findfont
dup length dict begin
  {1 index /FID ne {def} {pop pop} ifelse} forall
  /Encoding WinAnsiEncoding def
  currentdict
  end
/Font3 exch definefont pop
%%IncludeResource: font Helvetica-BoldOblique
/Helvetica-BoldOblique findfont
dup length dict begin
  {1 index /FID ne {def} {pop pop} ifelse} forall
  /Encoding WinAnsiEncoding def
  currentdict
  end
/Font4 exch definefont pop
%%IncludeResource: font Symbol
/Symbol findfont
dup length dict begin
  {1 index /FID ne {def} {pop pop} ifelse} forall
  currentdict
  end
/Font5 exch definefont pop
%%EndProlog
%%Page: 1 1
bp
0.00 0.00 720.00 576.00 cl
0.00 0.00 720.00 576.00 cl
0.00 0.00 720.00 576.00 cl
0.00 0.00 720.00 576.00 cl
0.00 0.00 720.00 576.00 cl
0.00 0.00 720.00 576.00 cl
0.00 0.00 720.00 576.00 cl
0.00 0.00 720.00 576.00 cl
0.00 0.00 720.00 576.00 cl
0.00 0.00 720.00 576.00 cl
/bg { 1 1 1 srgb } def
1 1 1 srgb
1.07 setlinewidth
[] 0 setdash
1 setlinecap
1 setlinejoin
10.00 setmiterlimit
0.00 0.00 720.00 576.00 r p3
0.00 0.00 720.00 576.00 cl
53.58 37.58 714.52 570.52 cl
/bg { 1 1 1 srgb } def
0 0 0 srgb
1.07 setlinewidth
[] 0 setdash
1 setlinecap
1 setlinejoin
10.00 setmiterlimit
53.58 37.58 660.94 532.94 r p3
1 1 1 srgb
0.53 setlinewidth
[] 0 setdash
0 setlinecap
np
53.58 75.26 m
660.94 0 l
o
np
53.58 209.84 m
660.94 0 l
o
np
53.58 344.42 m
660.94 0 l
o
np
53.58 479.01 m
660.94 0 l
o
1.07 setlinewidth
[] 0 setdash
np
53.58 142.55 m
660.94 0 l
o
np
53.58 277.13 m
660.94 0 l
o
np
53.58 411.72 m
660.94 0 l
o
np
53.58 546.30 m
660.94 0 l
o
np
177.51 37.58 m
0 532.94 l
o
np
384.05 37.58 m
0 532.94 l
o
np
590.60 37.58 m
0 532.94 l
o
0.2000 0.2000 0.2000 srgb
np
177.51 398.26 m
0 148.04 l
o
np
177.51 277.13 m
0 -107.66 l
o
1 setlinecap
np
 146.53 398.26 m
0 -121.13 l
61.96 0 l
0 121.13 l
-61.96 0 l
cp p3
2.13 setlinewidth
[] 0 setdash
0 setlinecap
np
146.53 330.97 m
61.96 0 l
o
/bg { 0.2000 0.2000 0.2000 srgb } def
0.71 setlinewidth
[] 0 setdash
1 setlinecap
384.05 61.80 1.95 c p3
1.07 setlinewidth
[] 0 setdash
0 setlinecap
np
384.05 398.26 m
0 94.20 l
o
np
384.05 277.13 m
0 -161.49 l
o
/bg { 1 1 1 srgb } def
1 setlinecap
np
 353.07 398.26 m
0 -121.13 l
61.96 0 l
0 121.13 l
-61.96 0 l
cp p3
2.13 setlinewidth
[] 0 setdash
0 setlinecap
np
353.07 330.97 m
61.96 0 l
o
1.07 setlinewidth
[] 0 setdash
np
590.60 384.80 m
0 53.83 l
o
np
590.60 263.68 m
0 -94.21 l
o
1 setlinecap
np
 559.61 384.80 m
0 -121.12 l
61.97 0 l
0 121.12 l
-61.97 0 l
cp p3
2.13 setlinewidth
[] 0 setdash
0 setlinecap
np
559.61 304.05 m
61.97 0 l
o
/bg { 1 0 0 srgb } def
np
 173.95 339.04 m
3.56 3.56 l
3.56 -3.56 l
-3.56 -3.55 l
cp p2
np
 380.50 336.35 m
3.55 3.56 l
3.56 -3.56 l
-3.56 -3.56 l
cp p2
np
 587.04 314.82 m
3.56 3.55 l
3.55 -3.55 l
-3.55 -3.56 l
cp p2
0.00 0.00 720.00 576.00 cl
0.00 0.00 720.00 576.00 cl
0.00 0.00 720.00 576.00 cl
0.00 0.00 720.00 576.00 cl
0.00 0.00 720.00 576.00 cl
0.00 0.00 720.00 576.00 cl
0.00 0.00 720.00 576.00 cl
0.00 0.00 720.00 576.00 cl
0.00 0.00 720.00 576.00 cl
0.00 0.00 720.00 576.00 cl
0.00 0.00 720.00 576.00 cl
0.00 0.00 720.00 576.00 cl
0.00 0.00 720.00 576.00 cl
0.00 0.00 720.00 576.00 cl
0.00 0.00 720.00 576.00 cl
0.00 0.00 720.00 576.00 cl
/Font2 findfont 13 s
0.3020 0.3020 0.3020 srgb
48.65 128.55 (2.5) 1 0 t
48.65 263.13 (5.0) 1 0 t
48.65 397.71 (7.5) 1 0 t
48.65 532.29 (10.0) 1 0 t
0.00 0.00 720.00 576.00 cl
0.00 0.00 720.00 576.00 cl
0.2000 0.2000 0.2000 srgb
1.07 setlinewidth
[] 0 setdash
0 setlinecap
1 setlinejoin
10.00 setmiterlimit
np
50.84 142.55 m
2.74 0 l
o
np
50.84 277.13 m
2.74 0 l
o
np
50.84 411.72 m
2.74 0 l
o
np
50.84 546.30 m
2.74 0 l
o
0.00 0.00 720.00 576.00 cl
0.00 0.00 720.00 576.00 cl
0.00 0.00 720.00 576.00 cl
0.00 0.00 720.00 576.00 cl
0.00 0.00 720.00 576.00 cl
0.00 0.00 720.00 576.00 cl
0.00 0.00 720.00 576.00 cl
0.00 0.00 720.00 576.00 cl
0.00 0.00 720.00 576.00 cl
0.00 0.00 720.00 576.00 cl
0.2000 0.2000 0.2000 srgb
1.07 setlinewidth
[] 0 setdash
0 setlinecap
1 setlinejoin
10.00 setmiterlimit
np
177.51 34.84 m
0 2.74 l
o
np
384.05 34.84 m
0 2.74 l
o
np
590.60 34.84 m
0 2.74 l
o
0.00 0.00 720.00 576.00 cl
0.00 0.00 720.00 576.00 cl
/Font2 findfont 13 s
0.3020 0.3020 0.3020 srgb
177.51 23.31 (B) .5 0 t
384.05 23.31 (BC) .5 0 t
590.60 23.31 (C) .5 0 t
0.00 0.00 720.00 576.00 cl
0.00 0.00 720.00 576.00 cl
0.00 0.00 720.00 576.00 cl
0.00 0.00 720.00 576.00 cl
0.00 0.00 720.00 576.00 cl
0.00 0.00 720.00 576.00 cl
/Font2 findfont 17 s
0 0 0 srgb
334.93 5.40 (Ar) 0 ta
0.340 (tifacts set) tb gr
0.00 0.00 720.00 576.00 cl
0.00 0.00 720.00 576.00 cl
/Font2 findfont 17 s
0 0 0 srgb
17.59 304.05 (Score) .5 90 t
0.00 0.00 720.00 576.00 cl
0.00 0.00 720.00 576.00 cl
0.00 0.00 720.00 576.00 cl
0.00 0.00 720.00 576.00 cl
0.00 0.00 720.00 576.00 cl
0.00 0.00 720.00 576.00 cl
0.00 0.00 720.00 576.00 cl
0.00 0.00 720.00 576.00 cl
0.00 0.00 720.00 576.00 cl
0.00 0.00 720.00 576.00 cl
ep
%%Trailer
%%Pages: 1
%%EOF
