%!PS-Adobe-3.0 EPSF-3.0
%%DocumentNeededResources: font Helvetica
%%+ font Helvetica-Bold
%%+ font Helvetica-Oblique
%%+ font Helvetica-BoldOblique
%%+ font Symbol
%%Title: R Graphics Output
%%Creator: R Software
%%Pages: (atend)
%%BoundingBox: 0 0 576 432
%%EndComments
%%BeginProlog
/bp  { gs sRGB gs } def
% begin .ps.prolog
/gs  { gsave } bind def
/gr  { grestore } bind def
/ep  { showpage gr gr } bind def
/m   { moveto } bind def
/l  { rlineto } bind def
/np  { newpath } bind def
/cp  { closepath } bind def
/f   { fill } bind def
/o   { stroke } bind def
/c   { newpath 0 360 arc } bind def
/r   { 4 2 roll moveto 1 copy 3 -1 roll exch 0 exch rlineto 0 rlineto -1 mul 0 exch rlineto closepath } bind def
/p1  { stroke } bind def
/p2  { gsave bg fill grestore newpath } bind def
/p3  { gsave bg fill grestore stroke } bind def
/p6  { gsave bg eofill grestore newpath } bind def
/p7  { gsave bg eofill grestore stroke } bind def
/t   { 5 -2 roll moveto gsave rotate
       1 index stringwidth pop
       mul neg 0 rmoveto show grestore } bind def
/ta  { 4 -2 roll moveto gsave rotate show } bind def
/tb  { 2 -1 roll 0 rmoveto show } bind def
/cl  { grestore gsave newpath 3 index 3 index moveto 1 index
       4 -1 roll lineto  exch 1 index lineto lineto
       closepath clip newpath } bind def
/rgb { setrgbcolor } bind def
/s   { scalefont setfont } bind def
% end   .ps.prolog
/sRGB { [ /CIEBasedABC
          << /DecodeLMN
               [ { dup 0.03928 le
                        {12.92321 div}
                        {0.055 add 1.055 div 2.4 exp }
                     ifelse
                 } bind dup dup
               ]
             /MatrixLMN [0.412457 0.212673 0.019334
                         0.357576 0.715152 0.119192
                         0.180437 0.072175 0.950301]
             /WhitePoint [0.9505 1.0 1.0890]
           >>
         ] setcolorspace } bind def
/srgb { setcolor } bind def
% begin encoding
/WinAnsiEncoding [
 /.notdef /.notdef /.notdef /.notdef /.notdef /.notdef /.notdef /.notdef
 /.notdef /.notdef /.notdef /.notdef /.notdef /.notdef /.notdef /.notdef
 /.notdef /.notdef /.notdef /.notdef /.notdef /.notdef /.notdef /.notdef
 /.notdef /.notdef /.notdef /.notdef /.notdef /.notdef /.notdef /.notdef
 /space /exclam /quotedbl /numbersign /dollar /percent /ampersand /quoteright
 /parenleft /parenright /asterisk /plus /comma /minus /period /slash
 /zero /one /two /three /four /five /six /seven
 /eight /nine /colon /semicolon /less /equal /greater /question
 /at /A /B /C /D /E /F /G
 /H /I /J /K /L /M /N /O
 /P /Q /R /S /T /U /V /W
 /X /Y /Z /bracketleft /backslash /bracketright /asciicircum /underscore
 /grave /a /b /c /d /e /f /g
 /h /i /j /k /l /m /n /o
 /p /q /r /s /t /u /v /w
 /x /y /z /braceleft /bar /braceright /asciitilde /.notdef
 /Euro /.notdef /quotesinglbase /florin /quotedblbase /ellipsis /dagger /daggerdbl
 /circumflex /perthousand /Scaron /guilsinglleft /OE /.notdef /Zcaron /.notdef
 /.notdef /quoteleft /quoteright /quotedblleft /quotedblright /bullet /endash /emdash
 /tilde /trademark /scaron /guilsinglright /oe /.notdef /zcaron /Ydieresis
 /space /exclamdown /cent /sterling /currency /yen /brokenbar /section
 /dieresis /copyright /ordfeminine /guillemotleft /logicalnot /hyphen /registered /macron
 /degree /plusminus /twosuperior /threesuperior /acute /mu /paragraph /periodcentered
 /cedilla /onesuperior /ordmasculine /guillemotright /onequarter /onehalf /threequarters /questiondown
 /Agrave /Aacute /Acircumflex /Atilde /Adieresis /Aring /AE /Ccedilla
 /Egrave /Eacute /Ecircumflex /Edieresis /Igrave /Iacute /Icircumflex /Idieresis
 /Eth /Ntilde /Ograve /Oacute /Ocircumflex /Otilde /Odieresis /multiply
 /Oslash /Ugrave /Uacute /Ucircumflex /Udieresis /Yacute /Thorn /germandbls
 /agrave /aacute /acircumflex /atilde /adieresis /aring /ae /ccedilla
 /egrave /eacute /ecircumflex /edieresis /igrave /iacute /icircumflex /idieresis
 /eth /ntilde /ograve /oacute /ocircumflex /otilde /odieresis /divide
 /oslash /ugrave /uacute /ucircumflex /udieresis /yacute /thorn /ydieresis
]
 def
% end encoding
%%IncludeResource: font Helvetica
/Helvetica findfont
dup length dict begin
  {1 index /FID ne {def} {pop pop} ifelse} forall
  /Encoding WinAnsiEncoding def
  currentdict
  end
/Font1 exch definefont pop
%%IncludeResource: font Helvetica-Bold
/Helvetica-Bold findfont
dup length dict begin
  {1 index /FID ne {def} {pop pop} ifelse} forall
  /Encoding WinAnsiEncoding def
  currentdict
  end
/Font2 exch definefont pop
%%IncludeResource: font Helvetica-Oblique
/Helvetica-Oblique findfont
dup length dict begin
  {1 index /FID ne {def} {pop pop} ifelse} forall
  /Encoding WinAnsiEncoding def
  currentdict
  end
/Font3 exch definefont pop
%%IncludeResource: font Helvetica-BoldOblique
/Helvetica-BoldOblique findfont
dup length dict begin
  {1 index /FID ne {def} {pop pop} ifelse} forall
  /Encoding WinAnsiEncoding def
  currentdict
  end
/Font4 exch definefont pop
%%IncludeResource: font Symbol
/Symbol findfont
dup length dict begin
  {1 index /FID ne {def} {pop pop} ifelse} forall
  currentdict
  end
/Font5 exch definefont pop
%%EndProlog
%%Page: 1 1
bp
0.00 0.00 576.00 432.00 cl
0.00 0.00 576.00 432.00 cl
ep
%%Trailer
%%Pages: 1
%%EOF
.00 576.00 432.00 cl
0.00 0.00 576.00 432.00 cl
0.00 0.00 576.00 432.00 cl
0.00 0.00 576.00 432.00 cl
0.00 0.00 576.00 432.00 cl
0.00 0.00 576.00 432.00 cl
0.00 0.00 576.00 432.00 cl
0.00 0.00 576.00 432.00 cl
0.00 0.00 576.00 432.00 cl
/bg { 1 1 1 srgb } def
1 1 1 srgb
1.07 setlinewidth
[] 0 setdash
1 setlinecap
1 setlinejoin
10.00 setmiterlimit
0.00 0.00 576.00 432.00 r p3
0.00 0.00 576.00 432.00 cl
35.51 37.58 570.52 403.45 cl
/bg { 1 1 1 srgb } def
0 0 0 srgb
1.07 setlinewidth
[] 0 setdash
1 setlinecap
1 setlinejoin
10.00 setmiterlimit
35.51 37.58 535.01 365.86 r p3
0.4980 0.4980 0.4980 srgb
0.53 setlinewidth
[] 0 setdash
0 setlinecap
np
35.51 95.79 m
535.01 0 l
o
np
35.51 178.94 m
535.01 0 l
o
np
35.51 262.09 m
535.01 0 l
o
np
35.51 345.24 m
535.01 0 l
o
1 1 1 srgb
1.07 setlinewidth
[] 0 setdash
np
35.51 54.21 m
535.01 0 l
o
np
35.51 137.36 m
535.01 0 l
o
np
35.51 220.51 m
535.01 0 l
o
np
35.51 303.66 m
535.01 0 l
o
np
35.51 386.81 m
535.01 0 l
o
np
135.83 37.58 m
0 365.87 l
o
np
303.02 37.58 m
0 365.87 l
o
np
470.21 37.58 m
0 365.87 l
o
0.2000 0.2000 0.2000 srgb
np
135.83 386.81 m
0 0 l
o
np
135.83 137.36 m
0 -83.15 l
o
1 setlinecap
np
 73.13 386.81 m
0 -249.45 l
125.39 0 l
0 249.45 l
-125.39 0 l
cp p3
2.13 setlinewidth
[] 0 setdash
0 setlinecap
np
73.13 303.66 m
125.39 0 l
o
1.07 setlinewidth
[] 0 setdash
np
303.02 386.81 m
0 0 l
o
np
303.02 116.57 m
0 -62.36 l
o
1 setlinecap
np
 240.32 386.81 m
0 -270.24 l
125.39 0 l
0 270.24 l
-125.39 0 l
cp p3
2.13 setlinewidth
[] 0 setdash
0 setlinecap
np
240.32 303.66 m
125.39 0 l
o
1.07 setlinewidth
[] 0 setdash
np
470.21 386.81 m
0 0 l
o
np
470.21 54.21 m
0 0 l
o
1 setlinecap
np
 407.51 386.81 m
0 -332.60 l
125.39 0 l
0 332.60 l
-125.39 0 l
cp p3
2.13 setlinewidth
[] 0 setdash
0 setlinecap
np
407.51 220.51 m
125.39 0 l
o
0.00 0.00 576.00 432.00 cl
0.00 0.00 576.00 432.00 cl
0.00 0.00 576.00 432.00 cl
0.00 0.00 576.00 432.00 cl
0.00 0.00 576.00 432.00 cl
0.00 0.00 576.00 432.00 cl
0.00 0.00 576.00 432.00 cl
0.00 0.00 576.00 432.00 cl
0.00 0.00 576.00 432.00 cl
0.00 0.00 576.00 432.00 cl
0.00 0.00 576.00 432.00 cl
0.00 0.00 576.00 432.00 cl
0.00 0.00 576.00 432.00 cl
0.00 0.00 576.00 432.00 cl
0.00 0.00 576.00 432.00 cl
0.00 0.00 576.00 432.00 cl
/Font2 findfont 13 s
0.3020 0.3020 0.3020 srgb
30.58 40.21 (1) 1 0 t
30.58 123.36 (2) 1 0 t
30.58 206.51 (3) 1 0 t
30.58 289.66 (4) 1 0 t
30.58 372.81 (5) 1 0 t
0.00 0.00 576.00 432.00 cl
0.00 0.00 576.00 432.00 cl
0.2000 0.2000 0.2000 srgb
1.07 setlinewidth
[] 0 setdash
0 setlinecap
1 setlinejoin
10.00 setmiterlimit
np
32.77 54.21 m
2.74 0 l
o
np
32.77 137.36 m
2.74 0 l
o
np
32.77 220.51 m
2.74 0 l
o
np
32.77 303.66 m
2.74 0 l
o
np
32.77 386.81 m
2.74 0 l
o
0.00 0.00 576.00 432.00 cl
0.00 0.00 576.00 432.00 cl
0.00 0.00 576.00 432.00 cl
0.00 0.00 576.00 432.00 cl
0.00 0.00 576.00 432.00 cl
0.00 0.00 576.00 432.00 cl
0.00 0.00 576.00 432.00 cl
0.00 0.00 576.00 432.00 cl
0.00 0.00 576.00 432.00 cl
0.00 0.00 576.00 432.00 cl
0.2000 0.2000 0.2000 srgb
1.07 setlinewidth
[] 0 setdash
0 setlinecap
1 setlinejoin
10.00 setmiterlimit
np
135.83 34.84 m
0 2.74 l
o
np
303.02 34.84 m
0 2.74 l
o
np
470.21 34.84 m
0 2.74 l
o
0.00 0.00 576.00 432.00 cl
0.00 0.00 576.00 432.00 cl
/Font2 findfont 13 s
0.3020 0.3020 0.3020 srgb
135.83 23.31 (FB) .5 0 t
303.02 23.31 (FBC) .5 0 t
470.21 23.31 (FC) .5 0 t
0.00 0.00 576.00 432.00 cl
0.00 0.00 576.00 432.00 cl
0.00 0.00 576.00 432.00 cl
0.00 0.00 576.00 432.00 cl
0.00 0.00 576.00 432.00 cl
0.00 0.00 576.00 432.00 cl
/Font2 findfont 17 s
0 0 0 srgb
253.90 5.40 (Ar) 0 ta
0.340 (tifacts set) tb gr
0.00 0.00 576.00 432.00 cl
0.00 0.00 576.00 432.00 cl
/Font2 findfont 17 s
0 0 0 srgb
17.59 220.51 (Score) .5 90 t
0.00 0.00 576.00 432.00 cl
0.00 0.00 576.00 432.00 cl
0.00 0.00 576.00 432.00 cl
0.00 0.00 576.00 432.00 cl
0.00 0.00 576.00 432.00 cl
0.00 0.00 576.00 432.00 cl
/Font1 findfont 20 s
0 0 0 srgb
303.02 414.30 (Case study credit application on FMSG) .5 0 t
0.00 0.00 576.00 432.00 cl
0.00 0.00 576.00 432.00 cl
0.00 0.00 576.00 432.00 cl
0.00 0.00 576.00 432.00 cl
ep
%%Trailer
%%Pages: 1
%%EOF
