%!PS-Adobe-3.0 EPSF-3.0
%%DocumentNeededResources: font Helvetica
%%+ font Helvetica-Bold
%%+ font Helvetica-Oblique
%%+ font Helvetica-BoldOblique
%%+ font Symbol
%%Title: R Graphics Output
%%Creator: R Software
%%Pages: (atend)
%%BoundingBox: 0 0 720 576
%%EndComments
%%BeginProlog
/bp  { gs sRGB gs } def
% begin .ps.prolog
/gs  { gsave } bind def
/gr  { grestore } bind def
/ep  { showpage gr gr } bind def
/m   { moveto } bind def
/l  { rlineto } bind def
/np  { newpath } bind def
/cp  { closepath } bind def
/f   { fill } bind def
/o   { stroke } bind def
/c   { newpath 0 360 arc } bind def
/r   { 4 2 roll moveto 1 copy 3 -1 roll exch 0 exch rlineto 0 rlineto -1 mul 0 exch rlineto closepath } bind def
/p1  { stroke } bind def
/p2  { gsave bg fill grestore newpath } bind def
/p3  { gsave bg fill grestore stroke } bind def
/p6  { gsave bg eofill grestore newpath } bind def
/p7  { gsave bg eofill grestore stroke } bind def
/t   { 5 -2 roll moveto gsave rotate
       1 index stringwidth pop
       mul neg 0 rmoveto show grestore } bind def
/ta  { 4 -2 roll moveto gsave rotate show } bind def
/tb  { 2 -1 roll 0 rmoveto show } bind def
/cl  { grestore gsave newpath 3 index 3 index moveto 1 index
       4 -1 roll lineto  exch 1 index lineto lineto
       closepath clip newpath } bind def
/rgb { setrgbcolor } bind def
/s   { scalefont setfont } bind def
% end   .ps.prolog
/sRGB { [ /CIEBasedABC
          << /DecodeLMN
               [ { dup 0.03928 le
                        {12.92321 div}
                        {0.055 add 1.055 div 2.4 exp }
                     ifelse
                 } bind dup dup
               ]
             /MatrixLMN [0.412457 0.212673 0.019334
                         0.357576 0.715152 0.119192
                         0.180437 0.072175 0.950301]
             /WhitePoint [0.9505 1.0 1.0890]
           >>
         ] setcolorspace } bind def
/srgb { setcolor } bind def
% begin encoding
/WinAnsiEncoding [
 /.notdef /.notdef /.notdef /.notdef /.notdef /.notdef /.notdef /.notdef
 /.notdef /.notdef /.notdef /.notdef /.notdef /.notdef /.notdef /.notdef
 /.notdef /.notdef /.notdef /.notdef /.notdef /.notdef /.notdef /.notdef
 /.notdef /.notdef /.notdef /.notdef /.notdef /.notdef /.notdef /.notdef
 /space /exclam /quotedbl /numbersign /dollar /percent /ampersand /quoteright
 /parenleft /parenright /asterisk /plus /comma /minus /period /slash
 /zero /one /two /three /four /five /six /seven
 /eight /nine /colon /semicolon /less /equal /greater /question
 /at /A /B /C /D /E /F /G
 /H /I /J /K /L /M /N /O
 /P /Q /R /S /T /U /V /W
 /X /Y /Z /bracketleft /backslash /bracketright /asciicircum /underscore
 /grave /a /b /c /d /e /f /g
 /h /i /j /k /l /m /n /o
 /p /q /r /s /t /u /v /w
 /x /y /z /braceleft /bar /braceright /asciitilde /.notdef
 /Euro /.notdef /quotesinglbase /florin /quotedblbase /ellipsis /dagger /daggerdbl
 /circumflex /perthousand /Scaron /guilsinglleft /OE /.notdef /Zcaron /.notdef
 /.notdef /quoteleft /quoteright /quotedblleft /quotedblright /bullet /endash /emdash
 /tilde /trademark /scaron /guilsinglright /oe /.notdef /zcaron /Ydieresis
 /space /exclamdown /cent /sterling /currency /yen /brokenbar /section
 /dieresis /copyright /ordfeminine /guillemotleft /logicalnot /hyphen /registered /macron
 /degree /plusminus /twosuperior /threesuperior /acute /mu /paragraph /periodcentered
 /cedilla /onesuperior /ordmasculine /guillemotright /onequarter /onehalf /threequarters /questiondown
 /Agrave /Aacute /Acircumflex /Atilde /Adieresis /Aring /AE /Ccedilla
 /Egrave /Eacute /Ecircumflex /Edieresis /Igrave /Iacute /Icircumflex /Idieresis
 /Eth /Ntilde /Ograve /Oacute /Ocircumflex /Otilde /Odieresis /multiply
 /Oslash /Ugrave /Uacute /Ucircumflex /Udieresis /Yacute /Thorn /germandbls
 /agrave /aacute /acircumflex /atilde /adieresis /aring /ae /ccedilla
 /egrave /eacute /ecircumflex /edieresis /igrave /iacute /icircumflex /idieresis
 /eth /ntilde /ograve /oacute /ocircumflex /otilde /odieresis /divide
 /oslash /ugrave /uacute /ucircumflex /udieresis /yacute /thorn /ydieresis
]
 def
% end encoding
%%IncludeResource: font Helvetica
/Helvetica findfont
dup length dict begin
  {1 index /FID ne {def} {pop pop} ifelse} forall
  /Encoding WinAnsiEncoding def
  currentdict
  end
/Font1 exch definefont pop
%%IncludeResource: font Helvetica-Bold
/Helvetica-Bold findfont
dup length dict begin
  {1 index /FID ne {def} {pop pop} ifelse} forall
  /Encoding WinAnsiEncoding def
  currentdict
  end
/Font2 exch definefont pop
%%IncludeResource: font Helvetica-Oblique
/Helvetica-Oblique findfont
dup length dict begin
  {1 index /FID ne {def} {pop pop} ifelse} forall
  /Encoding WinAnsiEncoding def
  currentdict
  end
/Font3 exch definefont pop
%%IncludeResource: font Helvetica-BoldOblique
/Helvetica-BoldOblique findfont
dup length dict begin
  {1 index /FID ne {def} {pop pop} ifelse} forall
  /Encoding WinAnsiEncoding def
  currentdict
  end
/Font4 exch definefont pop
%%IncludeResource: font Symbol
/Symbol findfont
dup length dict begin
  {1 index /FID ne {def} {pop pop} ifelse} forall
  currentdict
  end
/Font5 exch definefont pop
%%EndProlog
%%Page: 1 1
bp
0.00 0.00 720.00 576.00 cl
0.00 0.00 720.00 576.00 cl
0.00 0.00 720.00 576.00 cl
0.00 0.00 720.00 576.00 cl
0.00 0.00 720.00 576.00 cl
0.00 0.00 720.00 576.00 cl
0.00 0.00 720.00 576.00 cl
0.00 0.00 720.00 576.00 cl
0.00 0.00 720.00 576.00 cl
0.00 0.00 720.00 576.00 cl
0.00 0.00 720.00 576.00 cl
0.00 0.00 720.00 576.00 cl
/bg { 1 1 1 srgb } def
1 1 1 srgb
1.07 setlinewidth
[] 0 setdash
1 setlinecap
1 setlinejoin
10.00 setmiterlimit
0.00 0.00 720.00 576.00 r p3
0.00 0.00 720.00 576.00 cl
53.54 37.58 714.52 547.45 cl
/bg { 1 1 1 srgb } def
0 0 0 srgb
1.07 setlinewidth
[] 0 setdash
1 setlinecap
1 setlinejoin
10.00 setmiterlimit
53.54 37.58 660.98 509.86 r p3
0.4980 0.4980 0.4980 srgb
0.53 setlinewidth
[] 0 setdash
0 setlinecap
np
53.54 73.63 m
660.98 0 l
o
np
53.54 202.39 m
660.98 0 l
o
np
53.54 331.14 m
660.98 0 l
o
np
53.54 459.89 m
660.98 0 l
o
1 1 1 srgb
1.07 setlinewidth
[] 0 setdash
np
53.54 138.01 m
660.98 0 l
o
np
53.54 266.76 m
660.98 0 l
o
np
53.54 395.52 m
660.98 0 l
o
np
53.54 524.27 m
660.98 0 l
o
np
117.51 37.58 m
0 509.87 l
o
np
224.12 37.58 m
0 509.87 l
o
np
330.73 37.58 m
0 509.87 l
o
np
437.34 37.58 m
0 509.87 l
o
np
543.95 37.58 m
0 509.87 l
o
np
650.56 37.58 m
0 509.87 l
o
0.2000 0.2000 0.2000 srgb
np
117.51 318.26 m
0 103.01 l
o
np
117.51 215.26 m
0 -51.50 l
o
1 setlinecap
np
 77.53 318.26 m
0 -103.00 l
79.96 0 l
0 103.00 l
-79.96 0 l
cp p3
2.13 setlinewidth
[] 0 setdash
0 setlinecap
np
77.53 266.76 m
79.96 0 l
o
1.07 setlinewidth
[] 0 setdash
np
224.12 318.26 m
0 154.51 l
o
np
224.12 215.26 m
0 -51.50 l
o
1 setlinecap
np
 184.14 318.26 m
0 -103.00 l
79.96 0 l
0 103.00 l
-79.96 0 l
cp p3
2.13 setlinewidth
[] 0 setdash
0 setlinecap
np
184.14 266.76 m
79.96 0 l
o
/bg { 0.2000 0.2000 0.2000 srgb } def
0.71 setlinewidth
[] 0 setdash
1 setlinecap
330.73 421.27 1.95 c p3
330.73 369.77 1.95 c p3
330.73 112.26 1.95 c p3
1.07 setlinewidth
[] 0 setdash
0 setlinecap
np
330.73 266.76 m
0 51.50 l
o
np
330.73 215.26 m
0 -51.50 l
o
/bg { 1 1 1 srgb } def
1 setlinecap
np
 290.75 266.76 m
0 -51.50 l
79.96 0 l
0 51.50 l
-79.96 0 l
cp p3
2.13 setlinewidth
[] 0 setdash
0 setlinecap
np
290.75 266.76 m
79.96 0 l
o
1.07 setlinewidth
[] 0 setdash
np
437.34 382.64 m
0 141.63 l
o
np
437.34 266.76 m
0 -51.50 l
o
1 setlinecap
np
 397.36 382.64 m
0 -115.88 l
79.96 0 l
0 115.88 l
-79.96 0 l
cp p3
2.13 setlinewidth
[] 0 setdash
0 setlinecap
np
397.36 318.26 m
79.96 0 l
o
/bg { 0.2000 0.2000 0.2000 srgb } def
0.71 setlinewidth
[] 0 setdash
1 setlinecap
543.95 60.76 1.95 c p3
1.07 setlinewidth
[] 0 setdash
0 setlinecap
np
543.95 369.77 m
0 103.00 l
o
np
543.95 253.89 m
0 -141.63 l
o
/bg { 1 1 1 srgb } def
1 setlinecap
np
 503.97 369.77 m
0 -115.88 l
79.95 0 l
0 115.88 l
-79.95 0 l
cp p3
2.13 setlinewidth
[] 0 setdash
0 setlinecap
np
503.97 318.26 m
79.95 0 l
o
1.07 setlinewidth
[] 0 setdash
np
650.56 331.14 m
0 141.63 l
o
np
650.56 202.39 m
0 -90.13 l
o
1 setlinecap
np
 610.58 331.14 m
0 -128.75 l
79.95 0 l
0 128.75 l
-79.95 0 l
cp p3
2.13 setlinewidth
[] 0 setdash
0 setlinecap
np
610.58 292.51 m
79.95 0 l
o
0.00 0.00 720.00 576.00 cl
0.00 0.00 720.00 576.00 cl
0.00 0.00 720.00 576.00 cl
0.00 0.00 720.00 576.00 cl
0.00 0.00 720.00 576.00 cl
0.00 0.00 720.00 576.00 cl
0.00 0.00 720.00 576.00 cl
0.00 0.00 720.00 576.00 cl
0.00 0.00 720.00 576.00 cl
0.00 0.00 720.00 576.00 cl
0.00 0.00 720.00 576.00 cl
0.00 0.00 720.00 576.00 cl
0.00 0.00 720.00 576.00 cl
0.00 0.00 720.00 576.00 cl
0.00 0.00 720.00 576.00 cl
0.00 0.00 720.00 576.00 cl
/Font2 findfont 13 s
0.3020 0.3020 0.3020 srgb
48.61 124.01 (2.5) 1 0 t
48.61 252.76 (5.0) 1 0 t
48.61 381.51 (7.5) 1 0 t
48.61 510.27 (10.0) 1 0 t
0.00 0.00 720.00 576.00 cl
0.00 0.00 720.00 576.00 cl
0.2000 0.2000 0.2000 srgb
1.07 setlinewidth
[] 0 setdash
0 setlinecap
1 setlinejoin
10.00 setmiterlimit
np
50.80 138.01 m
2.74 0 l
o
np
50.80 266.76 m
2.74 0 l
o
np
50.80 395.52 m
2.74 0 l
o
np
50.80 524.27 m
2.74 0 l
o
0.00 0.00 720.00 576.00 cl
0.00 0.00 720.00 576.00 cl
0.00 0.00 720.00 576.00 cl
0.00 0.00 720.00 576.00 cl
0.00 0.00 720.00 576.00 cl
0.00 0.00 720.00 576.00 cl
0.00 0.00 720.00 576.00 cl
0.00 0.00 720.00 576.00 cl
0.00 0.00 720.00 576.00 cl
0.00 0.00 720.00 576.00 cl
0.2000 0.2000 0.2000 srgb
1.07 setlinewidth
[] 0 setdash
0 setlinecap
1 setlinejoin
10.00 setmiterlimit
np
117.51 34.84 m
0 2.74 l
o
np
224.12 34.84 m
0 2.74 l
o
np
330.73 34.84 m
0 2.74 l
o
np
437.34 34.84 m
0 2.74 l
o
np
543.95 34.84 m
0 2.74 l
o
np
650.56 34.84 m
0 2.74 l
o
0.00 0.00 720.00 576.00 cl
0.00 0.00 720.00 576.00 cl
/Font2 findfont 13 s
0.3020 0.3020 0.3020 srgb
117.51 23.31 (FB) .5 0 t
224.12 23.31 (FBC) .5 0 t
330.73 23.31 (FC) .5 0 t
437.34 23.31 (PB) .5 0 t
543.95 23.31 (PBC) .5 0 t
650.56 23.31 (PC) .5 0 t
0.00 0.00 720.00 576.00 cl
0.00 0.00 720.00 576.00 cl
0.00 0.00 720.00 576.00 cl
0.00 0.00 720.00 576.00 cl
0.00 0.00 720.00 576.00 cl
0.00 0.00 720.00 576.00 cl
/Font2 findfont 17 s
0 0 0 srgb
334.91 5.40 (Ar) 0 ta
0.340 (tifacts set) tb gr
0.00 0.00 720.00 576.00 cl
0.00 0.00 720.00 576.00 cl
/Font2 findfont 17 s
0 0 0 srgb
17.61 182.45 (Number of correct answer) 90 ta
-0.255 (s) tb gr
0.00 0.00 720.00 576.00 cl
0.00 0.00 720.00 576.00 cl
0.00 0.00 720.00 576.00 cl
0.00 0.00 720.00 576.00 cl
0.00 0.00 720.00 576.00 cl
0.00 0.00 720.00 576.00 cl
/Font1 findfont 20 s
0 0 0 srgb
76.41 558.30 (N?mero de respuestas correctas -  b) 0 ta
-0.400 (y case study \(P=PdV) tb
-2.500 (, F=FMSG\)) tb gr
0.00 0.00 720.00 576.00 cl
0.00 0.00 720.00 576.00 cl
0.00 0.00 720.00 576.00 cl
0.00 0.00 720.00 576.00 cl
ep
%%Trailer
%%Pages: 1
%%EOF
