%!PS-Adobe-3.0 EPSF-3.0
%%DocumentNeededResources: font Helvetica
%%+ font Helvetica-Bold
%%+ font Helvetica-Oblique
%%+ font Helvetica-BoldOblique
%%+ font Symbol
%%Title: R Graphics Output
%%Creator: R Software
%%Pages: (atend)
%%BoundingBox: 0 0 720 576
%%EndComments
%%BeginProlog
/bp  { gs sRGB gs } def
% begin .ps.prolog
/gs  { gsave } bind def
/gr  { grestore } bind def
/ep  { showpage gr gr } bind def
/m   { moveto } bind def
/l  { rlineto } bind def
/np  { newpath } bind def
/cp  { closepath } bind def
/f   { fill } bind def
/o   { stroke } bind def
/c   { newpath 0 360 arc } bind def
/r   { 4 2 roll moveto 1 copy 3 -1 roll exch 0 exch rlineto 0 rlineto -1 mul 0 exch rlineto closepath } bind def
/p1  { stroke } bind def
/p2  { gsave bg fill grestore newpath } bind def
/p3  { gsave bg fill grestore stroke } bind def
/p6  { gsave bg eofill grestore newpath } bind def
/p7  { gsave bg eofill grestore stroke } bind def
/t   { 5 -2 roll moveto gsave rotate
       1 index stringwidth pop
       mul neg 0 rmoveto show grestore } bind def
/ta  { 4 -2 roll moveto gsave rotate show } bind def
/tb  { 2 -1 roll 0 rmoveto show } bind def
/cl  { grestore gsave newpath 3 index 3 index moveto 1 index
       4 -1 roll lineto  exch 1 index lineto lineto
       closepath clip newpath } bind def
/rgb { setrgbcolor } bind def
/s   { scalefont setfont } bind def
% end   .ps.prolog
/sRGB { [ /CIEBasedABC
          << /DecodeLMN
               [ { dup 0.03928 le
                        {12.92321 div}
                        {0.055 add 1.055 div 2.4 exp }
                     ifelse
                 } bind dup dup
               ]
             /MatrixLMN [0.412457 0.212673 0.019334
                         0.357576 0.715152 0.119192
                         0.180437 0.072175 0.950301]
             /WhitePoint [0.9505 1.0 1.0890]
           >>
         ] setcolorspace } bind def
/srgb { setcolor } bind def
% begin encoding
/WinAnsiEncoding [
 /.notdef /.notdef /.notdef /.notdef /.notdef /.notdef /.notdef /.notdef
 /.notdef /.notdef /.notdef /.notdef /.notdef /.notdef /.notdef /.notdef
 /.notdef /.notdef /.notdef /.notdef /.notdef /.notdef /.notdef /.notdef
 /.notdef /.notdef /.notdef /.notdef /.notdef /.notdef /.notdef /.notdef
 /space /exclam /quotedbl /numbersign /dollar /percent /ampersand /quoteright
 /parenleft /parenright /asterisk /plus /comma /minus /period /slash
 /zero /one /two /three /four /five /six /seven
 /eight /nine /colon /semicolon /less /equal /greater /question
 /at /A /B /C /D /E /F /G
 /H /I /J /K /L /M /N /O
 /P /Q /R /S /T /U /V /W
 /X /Y /Z /bracketleft /backslash /bracketright /asciicircum /underscore
 /grave /a /b /c /d /e /f /g
 /h /i /j /k /l /m /n /o
 /p /q /r /s /t /u /v /w
 /x /y /z /braceleft /bar /braceright /asciitilde /.notdef
 /Euro /.notdef /quotesinglbase /florin /quotedblbase /ellipsis /dagger /daggerdbl
 /circumflex /perthousand /Scaron /guilsinglleft /OE /.notdef /Zcaron /.notdef
 /.notdef /quoteleft /quoteright /quotedblleft /quotedblright /bullet /endash /emdash
 /tilde /trademark /scaron /guilsinglright /oe /.notdef /zcaron /Ydieresis
 /space /exclamdown /cent /sterling /currency /yen /brokenbar /section
 /dieresis /copyright /ordfeminine /guillemotleft /logicalnot /hyphen /registered /macron
 /degree /plusminus /twosuperior /threesuperior /acute /mu /paragraph /periodcentered
 /cedilla /onesuperior /ordmasculine /guillemotright /onequarter /onehalf /threequarters /questiondown
 /Agrave /Aacute /Acircumflex /Atilde /Adieresis /Aring /AE /Ccedilla
 /Egrave /Eacute /Ecircumflex /Edieresis /Igrave /Iacute /Icircumflex /Idieresis
 /Eth /Ntilde /Ograve /Oacute /Ocircumflex /Otilde /Odieresis /multiply
 /Oslash /Ugrave /Uacute /Ucircumflex /Udieresis /Yacute /Thorn /germandbls
 /agrave /aacute /acircumflex /atilde /adieresis /aring /ae /ccedilla
 /egrave /eacute /ecircumflex /edieresis /igrave /iacute /icircumflex /idieresis
 /eth /ntilde /ograve /oacute /ocircumflex /otilde /odieresis /divide
 /oslash /ugrave /uacute /ucircumflex /udieresis /yacute /thorn /ydieresis
]
 def
% end encoding
%%IncludeResource: font Helvetica
/Helvetica findfont
dup length dict begin
  {1 index /FID ne {def} {pop pop} ifelse} forall
  /Encoding WinAnsiEncoding def
  currentdict
  end
/Font1 exch definefont pop
%%IncludeResource: font Helvetica-Bold
/Helvetica-Bold findfont
dup length dict begin
  {1 index /FID ne {def} {pop pop} ifelse} forall
  /Encoding WinAnsiEncoding def
  currentdict
  end
/Font2 exch definefont pop
%%IncludeResource: font Helvetica-Oblique
/Helvetica-Oblique findfont
dup length dict begin
  {1 index /FID ne {def} {pop pop} ifelse} forall
  /Encoding WinAnsiEncoding def
  currentdict
  end
/Font3 exch definefont pop
%%IncludeResource: font Helvetica-BoldOblique
/Helvetica-BoldOblique findfont
dup length dict begin
  {1 index /FID ne {def} {pop pop} ifelse} forall
  /Encoding WinAnsiEncoding def
  currentdict
  end
/Font4 exch definefont pop
%%IncludeResource: font Symbol
/Symbol findfont
dup length dict begin
  {1 index /FID ne {def} {pop pop} ifelse} forall
  currentdict
  end
/Font5 exch definefont pop
%%EndProlog
%%Page: 1 1
bp
0.00 0.00 720.00 576.00 cl
0.00 0.00 720.00 576.00 cl
0.00 0.00 720.00 576.00 cl
0.00 0.00 720.00 576.00 cl
0.00 0.00 720.00 576.00 cl
0.00 0.00 720.00 576.00 cl
0.00 0.00 720.00 576.00 cl
0.00 0.00 720.00 576.00 cl
0.00 0.00 720.00 576.00 cl
0.00 0.00 720.00 576.00 cl
0.00 0.00 720.00 576.00 cl
0.00 0.00 720.00 576.00 cl
/bg { 1 1 1 srgb } def
1 1 1 srgb
1.07 setlinewidth
[] 0 setdash
1 setlinecap
1 setlinejoin
10.00 setmiterlimit
0.00 0.00 720.00 576.00 r p3
0.00 0.00 720.00 576.00 cl
35.47 37.58 714.52 547.39 cl
/bg { 1 1 1 srgb } def
0 0 0 srgb
1.07 setlinewidth
[] 0 setdash
1 setlinecap
1 setlinejoin
10.00 setmiterlimit
35.47 37.58 679.05 509.80 r p3
0.4980 0.4980 0.4980 srgb
0.53 setlinewidth
[] 0 setdash
0 setlinecap
np
35.47 126.96 m
679.05 0 l
o
np
35.47 259.38 m
679.05 0 l
o
np
35.47 391.80 m
679.05 0 l
o
np
35.47 524.21 m
679.05 0 l
o
1 1 1 srgb
1.07 setlinewidth
[] 0 setdash
np
35.47 60.75 m
679.05 0 l
o
np
35.47 193.17 m
679.05 0 l
o
np
35.47 325.59 m
679.05 0 l
o
np
35.47 458.00 m
679.05 0 l
o
np
162.80 37.58 m
0 509.81 l
o
np
375.00 37.58 m
0 509.81 l
o
np
587.20 37.58 m
0 509.81 l
o
0.2000 0.2000 0.2000 srgb
np
162.80 325.59 m
0 132.41 l
o
np
162.80 193.17 m
0 -66.21 l
o
1 setlinecap
np
 83.22 325.59 m
0 -132.42 l
159.15 0 l
0 132.42 l
-159.15 0 l
cp p3
2.13 setlinewidth
[] 0 setdash
0 setlinecap
np
83.22 259.38 m
159.15 0 l
o
1.07 setlinewidth
[] 0 setdash
np
375.00 325.59 m
0 198.62 l
o
np
375.00 193.17 m
0 -66.21 l
o
1 setlinecap
np
 295.42 325.59 m
0 -132.42 l
159.15 0 l
0 132.42 l
-159.15 0 l
cp p3
2.13 setlinewidth
[] 0 setdash
0 setlinecap
np
295.42 259.38 m
159.15 0 l
o
/bg { 0.2000 0.2000 0.2000 srgb } def
0.71 setlinewidth
[] 0 setdash
1 setlinecap
587.20 458.00 1.95 c p3
587.20 391.80 1.95 c p3
587.20 60.75 1.95 c p3
1.07 setlinewidth
[] 0 setdash
0 setlinecap
np
587.20 259.38 m
0 66.21 l
o
np
587.20 193.17 m
0 -66.21 l
o
/bg { 1 1 1 srgb } def
1 setlinecap
np
 507.62 259.38 m
0 -66.21 l
159.16 0 l
0 66.21 l
-159.16 0 l
cp p3
2.13 setlinewidth
[] 0 setdash
0 setlinecap
np
507.62 259.38 m
159.16 0 l
o
0.00 0.00 720.00 576.00 cl
0.00 0.00 720.00 576.00 cl
0.00 0.00 720.00 576.00 cl
0.00 0.00 720.00 576.00 cl
0.00 0.00 720.00 576.00 cl
0.00 0.00 720.00 576.00 cl
0.00 0.00 720.00 576.00 cl
0.00 0.00 720.00 576.00 cl
0.00 0.00 720.00 576.00 cl
0.00 0.00 720.00 576.00 cl
0.00 0.00 720.00 576.00 cl
0.00 0.00 720.00 576.00 cl
0.00 0.00 720.00 576.00 cl
0.00 0.00 720.00 576.00 cl
0.00 0.00 720.00 576.00 cl
0.00 0.00 720.00 576.00 cl
/Font2 findfont 13 s
0.3020 0.3020 0.3020 srgb
30.54 46.75 (2) 1 0 t
30.54 179.17 (4) 1 0 t
30.54 311.59 (6) 1 0 t
30.54 444.00 (8) 1 0 t
0.00 0.00 720.00 576.00 cl
0.00 0.00 720.00 576.00 cl
0.2000 0.2000 0.2000 srgb
1.07 setlinewidth
[] 0 setdash
0 setlinecap
1 setlinejoin
10.00 setmiterlimit
np
32.73 60.75 m
2.74 0 l
o
np
32.73 193.17 m
2.74 0 l
o
np
32.73 325.59 m
2.74 0 l
o
np
32.73 458.00 m
2.74 0 l
o
0.00 0.00 720.00 576.00 cl
0.00 0.00 720.00 576.00 cl
0.00 0.00 720.00 576.00 cl
0.00 0.00 720.00 576.00 cl
0.00 0.00 720.00 576.00 cl
0.00 0.00 720.00 576.00 cl
0.00 0.00 720.00 576.00 cl
0.00 0.00 720.00 576.00 cl
0.00 0.00 720.00 576.00 cl
0.00 0.00 720.00 576.00 cl
0.2000 0.2000 0.2000 srgb
1.07 setlinewidth
[] 0 setdash
0 setlinecap
1 setlinejoin
10.00 setmiterlimit
np
162.80 34.84 m
0 2.74 l
o
np
375.00 34.84 m
0 2.74 l
o
np
587.20 34.84 m
0 2.74 l
o
0.00 0.00 720.00 576.00 cl
0.00 0.00 720.00 576.00 cl
/Font2 findfont 13 s
0.3020 0.3020 0.3020 srgb
162.80 23.31 (B) .5 0 t
375.00 23.31 (BC) .5 0 t
587.20 23.31 (C) .5 0 t
0.00 0.00 720.00 576.00 cl
0.00 0.00 720.00 576.00 cl
0.00 0.00 720.00 576.00 cl
0.00 0.00 720.00 576.00 cl
0.00 0.00 720.00 576.00 cl
0.00 0.00 720.00 576.00 cl
/Font2 findfont 17 s
0 0 0 srgb
325.88 5.40 (Ar) 0 ta
0.340 (tifacts set) tb gr
0.00 0.00 720.00 576.00 cl
0.00 0.00 720.00 576.00 cl
/Font2 findfont 17 s
0 0 0 srgb
17.61 182.42 (Number of correct answer) 90 ta
-0.255 (s) tb gr
0.00 0.00 720.00 576.00 cl
0.00 0.00 720.00 576.00 cl
0.00 0.00 720.00 576.00 cl
0.00 0.00 720.00 576.00 cl
0.00 0.00 720.00 576.00 cl
0.00 0.00 720.00 576.00 cl
/Font1 findfont 20 s
0 0 0 srgb
172.42 558.36 (A) 0 ta
-0.800 (v) tb
-0.500 (er) tb
-0.200 (age of correct answ) tb
-0.200 (ers - All case studies) tb gr
0.00 0.00 720.00 576.00 cl
0.00 0.00 720.00 576.00 cl
0.00 0.00 720.00 576.00 cl
0.00 0.00 720.00 576.00 cl
ep
%%Trailer
%%Pages: 1
%%EOF
