\relax 
\emailauthor{olvegam@unillanos.edu.co}{Olga Lucero Vega-Márquez}
\emailauthor{ja.chavarriaga908@uniandes.edu.co}{Jaime Chavarriaga}
\emailauthor{m.linaresv@uniandes.edu.co}{Mario Linares-Vásquez}
\Newlabel{label2}{a}
\Newlabel{label1}{b}
\@writefile{toc}{\contentsline {section}{\numberline {1}Introduction}{1}}
\newlabel{sec:introduction}{{1}{1}}
\bibstyle{elsarticle-num}
\bibdata{bib/sample}
\@writefile{toc}{\contentsline {section}{\numberline {2}Background and related work}{2}}
\@writefile{toc}{\contentsline {section}{\numberline {3}Research Methodology}{2}}
\@writefile{toc}{\contentsline {section}{\numberline {4}Results and Discussion}{2}}
\@writefile{toc}{\contentsline {section}{\numberline {5}Research Finding}{2}}
\@writefile{lot}{\contentsline {table}{\numberline {1}{\ignorespaces Sources}}{3}}
\newlabel{tab:sources}{{1}{3}}
\@writefile{toc}{\contentsline {section}{\numberline {6}Threats to validity}{3}}
\@writefile{toc}{\contentsline {section}{\numberline {7}Conclusion}{3}}
