\relax 
\emailauthor{olvegam@unillanos.edu.co}{Olga Lucero Vega-Márquez}
\emailauthor{ja.chavarriaga908@uniandes.edu.co}{Jaime Chavarriaga}
\emailauthor{m.linaresv@uniandes.edu.co}{Mario Linares-Vásquez}
\bibstyle{elsarticle-num}
\bibdata{bib/sample}
\Newlabel{label2}{a}
\Newlabel{label1}{b}
\@writefile{toc}{\contentsline {section}{\numberline {1}Introduction}{1}}
\newlabel{tab:soruces}{{1}{2}}
