%!PS-Adobe-3.0 EPSF-3.0
%%DocumentNeededResources: font Helvetica
%%+ font Helvetica-Bold
%%+ font Helvetica-Oblique
%%+ font Helvetica-BoldOblique
%%+ font Symbol
%%Title: R Graphics Output
%%Creator: R Software
%%Pages: (atend)
%%BoundingBox: 0 0 576 432
%%EndComments
%%BeginProlog
/bp  { gs sRGB gs } def
% begin .ps.prolog
/gs  { gsave } bind def
/gr  { grestore } bind def
/ep  { showpage gr gr } bind def
/m   { moveto } bind def
/l  { rlineto } bind def
/np  { newpath } bind def
/cp  { closepath } bind def
/f   { fill } bind def
/o   { stroke } bind def
/c   { newpath 0 360 arc } bind def
/r   { 4 2 roll moveto 1 copy 3 -1 roll exch 0 exch rlineto 0 rlineto -1 mul 0 exch rlineto closepath } bind def
/p1  { stroke } bind def
/p2  { gsave bg fill grestore newpath } bind def
/p3  { gsave bg fill grestore stroke } bind def
/p6  { gsave bg eofill grestore newpath } bind def
/p7  { gsave bg eofill grestore stroke } bind def
/t   { 5 -2 roll moveto gsave rotate
       1 index stringwidth pop
       mul neg 0 rmoveto show grestore } bind def
/ta  { 4 -2 roll moveto gsave rotate show } bind def
/tb  { 2 -1 roll 0 rmoveto show } bind def
/cl  { grestore gsave newpath 3 index 3 index moveto 1 index
       4 -1 roll lineto  exch 1 index lineto lineto
       closepath clip newpath } bind def
/rgb { setrgbcolor } bind def
/s   { scalefont setfont } bind def
% end   .ps.prolog
/sRGB { [ /CIEBasedABC
          << /DecodeLMN
               [ { dup 0.03928 le
                        {12.92321 div}
                        {0.055 add 1.055 div 2.4 exp }
                     ifelse
                 } bind dup dup
               ]
             /MatrixLMN [0.412457 0.212673 0.019334
                         0.357576 0.715152 0.119192
                         0.180437 0.072175 0.950301]
             /WhitePoint [0.9505 1.0 1.0890]
           >>
         ] setcolorspace } bind def
/srgb { setcolor } bind def
% begin encoding
/WinAnsiEncoding [
 /.notdef /.notdef /.notdef /.notdef /.notdef /.notdef /.notdef /.notdef
 /.notdef /.notdef /.notdef /.notdef /.notdef /.notdef /.notdef /.notdef
 /.notdef /.notdef /.notdef /.notdef /.notdef /.notdef /.notdef /.notdef
 /.notdef /.notdef /.notdef /.notdef /.notdef /.notdef /.notdef /.notdef
 /space /exclam /quotedbl /numbersign /dollar /percent /ampersand /quoteright
 /parenleft /parenright /asterisk /plus /comma /minus /period /slash
 /zero /one /two /three /four /five /six /seven
 /eight /nine /colon /semicolon /less /equal /greater /question
 /at /A /B /C /D /E /F /G
 /H /I /J /K /L /M /N /O
 /P /Q /R /S /T /U /V /W
 /X /Y /Z /bracketleft /backslash /bracketright /asciicircum /underscore
 /grave /a /b /c /d /e /f /g
 /h /i /j /k /l /m /n /o
 /p /q /r /s /t /u /v /w
 /x /y /z /braceleft /bar /braceright /asciitilde /.notdef
 /Euro /.notdef /quotesinglbase /florin /quotedblbase /ellipsis /dagger /daggerdbl
 /circumflex /perthousand /Scaron /guilsinglleft /OE /.notdef /Zcaron /.notdef
 /.notdef /quoteleft /quoteright /quotedblleft /quotedblright /bullet /endash /emdash
 /tilde /trademark /scaron /guilsinglright /oe /.notdef /zcaron /Ydieresis
 /space /exclamdown /cent /sterling /currency /yen /brokenbar /section
 /dieresis /copyright /ordfeminine /guillemotleft /logicalnot /hyphen /registered /macron
 /degree /plusminus /twosuperior /threesuperior /acute /mu /paragraph /periodcentered
 /cedilla /onesuperior /ordmasculine /guillemotright /onequarter /onehalf /threequarters /questiondown
 /Agrave /Aacute /Acircumflex /Atilde /Adieresis /Aring /AE /Ccedilla
 /Egrave /Eacute /Ecircumflex /Edieresis /Igrave /Iacute /Icircumflex /Idieresis
 /Eth /Ntilde /Ograve /Oacute /Ocircumflex /Otilde /Odieresis /multiply
 /Oslash /Ugrave /Uacute /Ucircumflex /Udieresis /Yacute /Thorn /germandbls
 /agrave /aacute /acircumflex /atilde /adieresis /aring /ae /ccedilla
 /egrave /eacute /ecircumflex /edieresis /igrave /iacute /icircumflex /idieresis
 /eth /ntilde /ograve /oacute /ocircumflex /otilde /odieresis /divide
 /oslash /ugrave /uacute /ucircumflex /udieresis /yacute /thorn /ydieresis
]
 def
% end encoding
%%IncludeResource: font Helvetica
/Helvetica findfont
dup length dict begin
  {1 index /FID ne {def} {pop pop} ifelse} forall
  /Encoding WinAnsiEncoding def
  currentdict
  end
/Font1 exch definefont pop
%%IncludeResource: font Helvetica-Bold
/Helvetica-Bold findfont
dup length dict begin
  {1 index /FID ne {def} {pop pop} ifelse} forall
  /Encoding WinAnsiEncoding def
  currentdict
  end
/Font2 exch definefont pop
%%IncludeResource: font Helvetica-Oblique
/Helvetica-Oblique findfont
dup length dict begin
  {1 index /FID ne {def} {pop pop} ifelse} forall
  /Encoding WinAnsiEncoding def
  currentdict
  end
/Font3 exch definefont pop
%%IncludeResource: font Helvetica-BoldOblique
/Helvetica-BoldOblique findfont
dup length dict begin
  {1 index /FID ne {def} {pop pop} ifelse} forall
  /Encoding WinAnsiEncoding def
  currentdict
  end
/Font4 exch definefont pop
%%IncludeResource: font Symbol
/Symbol findfont
dup length dict begin
  {1 index /FID ne {def} {pop pop} ifelse} forall
  currentdict
  end
/Font5 exch definefont pop
%%EndProlog
%%Page: 1 1
bp
0.00 0.00 576.00 432.00 cl
0.00 0.00 576.00 432.00 cl
0.00 0.00 576.00 432.00 cl
0.00 0.00 576.00 432.00 cl
0.00 0.00 576.00 432.00 cl
0.00 0.00 576.00 432.00 cl
0.00 0.00 576.00 432.00 cl
0.00 0.00 576.00 432.00 cl
0.00 0.00 576.00 432.00 cl
0.00 0.00 576.00 432.00 cl
0.00 0.00 576.00 432.00 cl
0.00 0.00 576.00 432.00 cl
/bg { 1 1 1 srgb } def
1 1 1 srgb
1.07 setlinewidth
[] 0 setdash
1 setlinecap
1 setlinejoin
10.00 setmiterlimit
0.00 0.00 576.00 432.00 r p3
0.00 0.00 576.00 432.00 cl
44.65 37.58 570.52 403.45 cl
/bg { 1 1 1 srgb } def
0 0 0 srgb
1.07 setlinewidth
[] 0 setdash
1 setlinecap
1 setlinejoin
10.00 setmiterlimit
44.65 37.58 525.87 365.86 r p3
0.4980 0.4980 0.4980 srgb
0.53 setlinewidth
[] 0 setdash
0 setlinecap
np
44.65 63.99 m
525.87 0 l
o
np
44.65 161.82 m
525.87 0 l
o
np
44.65 259.64 m
525.87 0 l
o
np
44.65 357.47 m
525.87 0 l
o
1 1 1 srgb
1.07 setlinewidth
[] 0 setdash
np
44.65 112.91 m
525.87 0 l
o
np
44.65 210.73 m
525.87 0 l
o
np
44.65 308.56 m
525.87 0 l
o
np
143.25 37.58 m
0 365.87 l
o
np
307.59 37.58 m
0 365.87 l
o
np
471.92 37.58 m
0 365.87 l
o
0.2000 0.2000 0.2000 srgb
np
143.25 318.34 m
0 68.47 l
o
np
143.25 181.38 m
0 -68.47 l
o
1 setlinecap
np
 81.63 318.34 m
0 -136.96 l
123.25 0 l
0 136.96 l
-123.25 0 l
cp p3
2.13 setlinewidth
[] 0 setdash
0 setlinecap
np
81.63 249.86 m
123.25 0 l
o
1.07 setlinewidth
[] 0 setdash
np
307.59 259.64 m
0 88.05 l
o
np
307.59 171.60 m
0 -117.39 l
o
1 setlinecap
np
 245.96 259.64 m
0 -88.04 l
123.25 0 l
0 88.04 l
-123.25 0 l
cp p3
2.13 setlinewidth
[] 0 setdash
0 setlinecap
np
245.96 210.73 m
123.25 0 l
o
1.07 setlinewidth
[] 0 setdash
np
471.92 240.08 m
0 146.73 l
o
np
471.92 132.47 m
0 -78.26 l
o
1 setlinecap
np
 410.30 240.08 m
0 -107.61 l
123.25 0 l
0 107.61 l
-123.25 0 l
cp p3
2.13 setlinewidth
[] 0 setdash
0 setlinecap
np
410.30 191.17 m
123.25 0 l
o
0.00 0.00 576.00 432.00 cl
0.00 0.00 576.00 432.00 cl
0.00 0.00 576.00 432.00 cl
0.00 0.00 576.00 432.00 cl
0.00 0.00 576.00 432.00 cl
0.00 0.00 576.00 432.00 cl
0.00 0.00 576.00 432.00 cl
0.00 0.00 576.00 432.00 cl
0.00 0.00 576.00 432.00 cl
0.00 0.00 576.00 432.00 cl
0.00 0.00 576.00 432.00 cl
0.00 0.00 576.00 432.00 cl
0.00 0.00 576.00 432.00 cl
0.00 0.00 576.00 432.00 cl
0.00 0.00 576.00 432.00 cl
0.00 0.00 576.00 432.00 cl
/Font2 findfont 13 s
0.3020 0.3020 0.3020 srgb
39.72 98.90 (5) 1 0 t
39.72 196.73 (10) 1 0 t
39.72 294.55 (15) 1 0 t
0.00 0.00 576.00 432.00 cl
0.00 0.00 576.00 432.00 cl
0.2000 0.2000 0.2000 srgb
1.07 setlinewidth
[] 0 setdash
0 setlinecap
1 setlinejoin
10.00 setmiterlimit
np
41.91 112.91 m
2.74 0 l
o
np
41.91 210.73 m
2.74 0 l
o
np
41.91 308.56 m
2.74 0 l
o
0.00 0.00 576.00 432.00 cl
0.00 0.00 576.00 432.00 cl
0.00 0.00 576.00 432.00 cl
0.00 0.00 576.00 432.00 cl
0.00 0.00 576.00 432.00 cl
0.00 0.00 576.00 432.00 cl
0.00 0.00 576.00 432.00 cl
0.00 0.00 576.00 432.00 cl
0.00 0.00 576.00 432.00 cl
0.00 0.00 576.00 432.00 cl
0.2000 0.2000 0.2000 srgb
1.07 setlinewidth
[] 0 setdash
0 setlinecap
1 setlinejoin
10.00 setmiterlimit
np
143.25 34.84 m
0 2.74 l
o
np
307.59 34.84 m
0 2.74 l
o
np
471.92 34.84 m
0 2.74 l
o
0.00 0.00 576.00 432.00 cl
0.00 0.00 576.00 432.00 cl
/Font2 findfont 13 s
0.3020 0.3020 0.3020 srgb
143.25 23.31 (PB) .5 0 t
307.59 23.31 (PBC) .5 0 t
471.92 23.31 (PC) .5 0 t
0.00 0.00 576.00 432.00 cl
0.00 0.00 576.00 432.00 cl
0.00 0.00 576.00 432.00 cl
0.00 0.00 576.00 432.00 cl
0.00 0.00 576.00 432.00 cl
0.00 0.00 576.00 432.00 cl
/Font2 findfont 17 s
0 0 0 srgb
258.46 5.40 (Ar) 0 ta
0.340 (tifacts set) tb gr
0.00 0.00 576.00 432.00 cl
0.00 0.00 576.00 432.00 cl
/Font2 findfont 17 s
0 0 0 srgb
16.64 220.51 (Subjects) .5 90 t
0.00 0.00 576.00 432.00 cl
0.00 0.00 576.00 432.00 cl
0.00 0.00 576.00 432.00 cl
0.00 0.00 576.00 432.00 cl
0.00 0.00 576.00 432.00 cl
0.00 0.00 576.00 432.00 cl
/Font1 findfont 20 s
0 0 0 srgb
307.59 414.30 (Case study point of sale) .5 0 t
0.00 0.00 576.00 432.00 cl
0.00 0.00 576.00 432.00 cl
0.00 0.00 576.00 432.00 cl
0.00 0.00 576.00 432.00 cl
ep
%%Trailer
%%Pages: 1
%%EOF
