Item Title,Publication Title,Book Series Title,Journal Volume,Journal Issue,Item DOI,Authors,Publication Year,URL,Content Type
"Process mining using BPMN: relating event logs and process models","Software & Systems Modeling","","16","4","10.1007/s10270-015-0502-0","Anna A. KalenkovaWil M. P. van der AalstIrina A. LomazovaVladimir A. Rubin","2017","http://link.springer.com/article/10.1007/s10270-015-0502-0","Article"
"Evaluating the appropriateness of the BPMN 2.0 standard for modeling service choreographies: using an extended quality framework","Software & Systems Modeling","","15","1","10.1007/s10270-014-0398-0","Mario Cortes-CornaxSophie Dupuy-ChessaDominique RieuNadine Mandran","2016","http://link.springer.com/article/10.1007/s10270-014-0398-0","Article"
"A case study on consistency management of business and IT process models in banking","Software & Systems Modeling","","13","3","10.1007/s10270-013-0318-8","Moisés Castelo BrancoYingfei XiongKrzysztof CzarneckiJochen KüsterHagen Völzer","2014","http://link.springer.com/article/10.1007/s10270-013-0318-8","Article"
"Query-driven soft traceability links for models","Software & Systems Modeling","","15","3","10.1007/s10270-014-0436-y","Ábel HegedüsÁkos HorváthIstván RáthRodrigo Rizzi StarrDániel Varró","2016","http://link.springer.com/article/10.1007/s10270-014-0436-y","Article"
"Where does model-driven engineering help? Experiences from three industrial cases","Software & Systems Modeling","","12","3","10.1007/s10270-011-0219-7","Parastoo MohagheghiWasif GilaniAlin StefanescuMiguel A. FernandezBjørn NordmoenMathias Fritzsche","2013","http://link.springer.com/article/10.1007/s10270-011-0219-7","Article"
"Enhancing traceability of persistent data access flows in process-driven SOAs","Distributed and Parallel Databases","","31","1","10.1007/s10619-012-7102-6","Christine MayrUwe ZdunSchahram Dustdar","2013","http://link.springer.com/article/10.1007/s10619-012-7102-6","Article"
"Developing BP-driven web applications through the use of MDE techniques","Software & Systems Modeling","","11","4","10.1007/s10270-010-0177-5","Victoria TorresPau GinerVicente Pelechano","2012","http://link.springer.com/article/10.1007/s10270-010-0177-5","Article"
"How do humans inspect BPMN models: an exploratory study","Software & Systems Modeling","","","","10.1007/s10270-016-0563-8","Cornelia HaisjacklPnina SofferShao Yi LimBarbara Weber","2016","http://link.springer.com/article/10.1007/s10270-016-0563-8","Article"
"Modelling mobile app requirements for semantic traceability","Requirements Engineering","","22","1","10.1007/s00766-015-0235-1","Robert Andrei BuchmannDimitris Karagiannis","2017","http://link.springer.com/article/10.1007/s00766-015-0235-1","Article"
"Design science in action: developing a modeling technique for eliciting requirements on business process management (BPM) tools","Software & Systems Modeling","","14","3","10.1007/s10270-014-0412-6","Ilia BiderErik Perjons","2015","http://link.springer.com/article/10.1007/s10270-014-0412-6","Article"
"Synthesizing data-centric models from business process models","Computing","","98","4","10.1007/s00607-015-0442-0","Rik EshuisPieter Van Gorp","2016","http://link.springer.com/article/10.1007/s00607-015-0442-0","Article"
"A model-driven method for enacting the design-time QoS analysis of business processes","Software & Systems Modeling","","13","2","10.1007/s10270-013-0345-5","Paolo BocciarelliAndrea D’Ambrogio","2014","http://link.springer.com/article/10.1007/s10270-013-0345-5","Article"
"Design for service compatibility","Software & Systems Modeling","","12","3","10.1007/s10270-012-0229-0","Georg GrossmannMichael SchreflMarkus Stumptner","2013","http://link.springer.com/article/10.1007/s10270-012-0229-0","Article"
"Supporting different process views through a Shared Process Model","Software & Systems Modeling","","15","4","10.1007/s10270-015-0453-5","Jochen KüsterHagen VölzerCédric FavreMoisés Castelo BrancoKrzysztof Czarnecki","2016","http://link.springer.com/article/10.1007/s10270-015-0453-5","Article"
"Embedding requirements within Model-Driven Architecture","Software Quality Journal","","19","2","10.1007/s11219-010-9122-7","Ali FouadKeith PhalpJohn Mathenge KanyaruSheridan Jeary","2011","http://link.springer.com/article/10.1007/s11219-010-9122-7","Article"
"Business process management as the “Killer App” for Petri nets","Software & Systems Modeling","","14","2","10.1007/s10270-014-0424-2","W. M. P. van der Aalst","2015","http://link.springer.com/article/10.1007/s10270-014-0424-2","Article"
"Modelling and analysis using GROOVE","International Journal on Software Tools for Technology Transfer","","14","1","10.1007/s10009-011-0186-x","Amir Hossein GhamarianMaarten de MolArend RensinkEduardo ZambonMaria Zimakova","2012","http://link.springer.com/article/10.1007/s10009-011-0186-x","Article"
"Considerations about quality in model-driven engineering","Software Quality Journal","","","","10.1007/s11219-016-9350-6","Fáber D. GiraldoSergio EspañaÓscar PastorWilliam J. Giraldo","2016","http://link.springer.com/article/10.1007/s11219-016-9350-6","Article"
"Investigating expressiveness and understandability of hierarchy in declarative business process models","Software & Systems Modeling","","14","3","10.1007/s10270-013-0356-2","Stefan ZugalPnina SofferCornelia HaisjacklJakob PinggeraManfred ReichertBarbara Weber","2015","http://link.springer.com/article/10.1007/s10270-013-0356-2","Article"
"Supporting fine-grained generative model-driven evolution","Software & Systems Modeling","","9","3","10.1007/s10270-009-0144-1","Theo Dirk MeijlerJan Pettersen NytunAndreas PrinzHans Wortmann","2010","http://link.springer.com/article/10.1007/s10270-009-0144-1","Article"
"Runtime self-monitoring approach of business process compliance in cloud environments","Cluster Computing","","18","4","10.1007/s10586-015-0494-0","Ahmed BarnawiAhmed AwadAmal ElgammalRadwa El ShawiAbdullah AlmalaiseSherif Sakr","2015","http://link.springer.com/article/10.1007/s10586-015-0494-0","Article"
"Norms modeling constructs of business process compliance management frameworks: a conceptual evaluation","Artificial Intelligence and Law","","","","10.1007/s10506-017-9215-8","Mustafa HashmiGuido Governatori","2017","http://link.springer.com/article/10.1007/s10506-017-9215-8","Article"
"Road to a reactive and incremental model transformation platform: three generations of the VIATRA framework","Software & Systems Modeling","","15","3","10.1007/s10270-016-0530-4","Dániel VarróGábor BergmannÁbel HegedüsÁkos HorváthIstván RáthZoltán Ujhelyi","2016","http://link.springer.com/article/10.1007/s10270-016-0530-4","Article"
"Beyond soundness: on the verification of semantic business process models","Distributed and Parallel Databases","","27","3","10.1007/s10619-010-7060-9","Ingo WeberJörg HoffmannJan Mendling","2010","http://link.springer.com/article/10.1007/s10619-010-7060-9","Article"
"A requirements monitoring framework for enterprise systems","Requirements Engineering","","11","1","10.1007/s00766-005-0016-3","William N. Robinson","2006","http://link.springer.com/article/10.1007/s00766-005-0016-3","Article"
"Message choreography modeling","Software & Systems Modeling","","13","1","10.1007/s10270-012-0272-x","Alin StefanescuSebastian WieczorekMatthias Schur","2014","http://link.springer.com/article/10.1007/s10270-012-0272-x","Article"
"Understanding Declare models: strategies, pitfalls, empirical results","Software & Systems Modeling","","15","2","10.1007/s10270-014-0435-z","Cornelia HaisjacklIrene BarbaStefan ZugalPnina SofferIrit HadarManfred ReichertJakob PinggeraBarbara Weber","2016","http://link.springer.com/article/10.1007/s10270-014-0435-z","Article"
"Process mining: a two-step approach to balance between underfitting and overfitting","Software & Systems Modeling","","9","1","10.1007/s10270-008-0106-z","W. M. P. van der AalstV. RubinH. M. W. VerbeekB. F. van DongenE. KindlerC. W. Günther","2008","http://link.springer.com/article/10.1007/s10270-008-0106-z","Article"
"A generic model decomposition technique and its application to the Eclipse modeling framework","Software & Systems Modeling","","14","2","10.1007/s10270-013-0348-2","Qin MaPierre KelsenChristian Glodt","2015","http://link.springer.com/article/10.1007/s10270-013-0348-2","Article"
"Graph and model transformation tools for model migration","Software & Systems Modeling","","13","1","10.1007/s10270-012-0245-0","Louis M. RoseMarkus HerrmannsdoerferSteffen MazanekPieter Van GorpSebastian BuchwaldTassilo HornElina KalninaAndreas KochKevin LanoBernhard SchätzManuel Wimmer","2014","http://link.springer.com/article/10.1007/s10270-012-0245-0","Article"
"Verifying workflow processes: a transformation-based approach","Software & Systems Modeling","","10","2","10.1007/s10270-010-0149-9","Haiping ZhaWil M. P. van der AalstJianmin WangLijie WenJiaguang Sun","2011","http://link.springer.com/article/10.1007/s10270-010-0149-9","Article"
"Formalizing and appling compliance patterns for business process compliance","Software & Systems Modeling","","15","1","10.1007/s10270-014-0395-3","Amal ElgammalOktay TuretkenWillem-Jan van den HeuvelMike Papazoglou","2016","http://link.springer.com/article/10.1007/s10270-014-0395-3","Article"
"Scientific workflows for process mining: building blocks, scenarios, and implementation","International Journal on Software Tools for Technology Transfer","","18","6","10.1007/s10009-015-0399-5","Alfredo BoltMassimiliano de LeoniWil M. P. van der Aalst","2016","http://link.springer.com/article/10.1007/s10009-015-0399-5","Article"
"Querying process models by behavior inclusion","Software & Systems Modeling","","14","3","10.1007/s10270-013-0389-6","Matthias KunzeMatthias WeidlichMathias Weske","2015","http://link.springer.com/article/10.1007/s10270-013-0389-6","Article"
"Matching events and activities by integrating behavioral aspects and label analysis","Software & Systems Modeling","","","","10.1007/s10270-017-0603-z","Thomas BaierClaudio Di CiccioJan MendlingMathias Weske","2017","http://link.springer.com/article/10.1007/s10270-017-0603-z","Article"
"Applications of ontologies in requirements engineering: a systematic review of the literature","Requirements Engineering","","21","4","10.1007/s00766-015-0222-6","Diego DermevalJéssyka VilelaIg Ibert BittencourtJaelson CastroSeiji IsotaniPatrick BritoAlan Silva","2016","http://link.springer.com/article/10.1007/s00766-015-0222-6","Article"
"Business process model abstraction: a definition, catalog, and survey","Distributed and Parallel Databases","","30","1","10.1007/s10619-011-7088-5","Sergey SmirnovHajo A. ReijersMathias WeskeThijs Nugteren","2012","http://link.springer.com/article/10.1007/s10619-011-7088-5","Article"
"Challenges of working with artifacts in requirements engineering and software engineering","Requirements Engineering","","22","3","10.1007/s00766-017-0272-z","Parisa GhaziMartin Glinz","2017","http://link.springer.com/article/10.1007/s00766-017-0272-z","Article"
"Staged model evolution and proactive quality guidance for model libraries","Software Quality Journal","","24","3","10.1007/s11219-015-9298-y","Andreas GanserHorst LichterAlexander RothBernhard Rumpe","2016","http://link.springer.com/article/10.1007/s11219-015-9298-y","Article"
"From objects to services: toward a stepwise migration approach for Java applications","International Journal on Software Tools for Technology Transfer","","11","6","10.1007/s10009-009-0123-4","Alessandro MarchettoFilippo Ricca","2009","http://link.springer.com/article/10.1007/s10009-009-0123-4","Article"
"Design rationale capture for process improvement in the globalised enterprise: an industrial study","Software & Systems Modeling","","12","4","10.1007/s10270-011-0223-y","A. NkwochaJ. G. HallL. Rapanotti","2013","http://link.springer.com/article/10.1007/s10270-011-0223-y","Article"
"Event stream-based process discovery using abstract representations","Knowledge and Information Systems","","","","10.1007/s10115-017-1060-2","Sebastiaan J. van ZelstBoudewijn F. van DongenWil M. P. van der Aalst","2017","http://link.springer.com/article/10.1007/s10115-017-1060-2","Article"
"Effective application of process improvement patterns to business processes","Software & Systems Modeling","","15","2","10.1007/s10270-014-0443-z","Matthias LohrmannManfred Reichert","2016","http://link.springer.com/article/10.1007/s10270-014-0443-z","Article"
"Balanced multi-perspective checking of process conformance","Computing","","98","4","10.1007/s00607-015-0441-1","Felix MannhardtMassimiliano de LeoniHajo A. ReijersWil M. P. van der Aalst","2016","http://link.springer.com/article/10.1007/s00607-015-0441-1","Article"
"What your plug-in test suites really test: an integration perspective on test suite understanding","Empirical Software Engineering","","18","5","10.1007/s10664-012-9235-7","Michaela GreilerArie van Deursen","2013","http://link.springer.com/article/10.1007/s10664-012-9235-7","Article"
"On the modeling and generation of service-oriented tool chains","Software & Systems Modeling","","13","2","10.1007/s10270-012-0275-7","Matthias BiehlJad El-KhouryFrédéric LoiretMartin Törngren","2014","http://link.springer.com/article/10.1007/s10270-012-0275-7","Article"
"Genericity for model management operations","Software & Systems Modeling","","12","1","10.1007/s10270-011-0203-2","Louis RoseEsther GuerraJuan de LaraAnne EtienDimitris KolovosRichard Paige","2013","http://link.springer.com/article/10.1007/s10270-011-0203-2","Article"
"From insect to Internet: Situated control for networked robot teams","Annals of Mathematics and Artificial Intelligence","","31","1 - 4","10.1023/A:1016650101473","Barry Brian WergerMaja J. Matarić","2001","http://link.springer.com/article/10.1023/A%3A1016650101473","Article"
"A graph-theoretic method for the inductive development of reference process models","Software & Systems Modeling","","16","3","10.1007/s10270-015-0490-0","Jana-Rebecca RehsePeter FettkePeter Loos","2017","http://link.springer.com/article/10.1007/s10270-015-0490-0","Article"
"Styles in business process modeling: an exploration and a model","Software & Systems Modeling","","14","3","10.1007/s10270-013-0349-1","Jakob PinggeraPnina SofferDirk FahlandMatthias WeidlichStefan ZugalBarbara WeberHajo A. ReijersJan Mendling","2015","http://link.springer.com/article/10.1007/s10270-013-0349-1","Article"
"VMTL: a language for end-user model transformation","Software & Systems Modeling","","","","10.1007/s10270-016-0546-9","Vlad AcreţoaieHarald StörrleDaniel Strüber","2016","http://link.springer.com/article/10.1007/s10270-016-0546-9","Article"
"Formal concept analysis: current trends and directions","Artificial Intelligence Review","","44","1","10.1007/s10462-013-9404-0","Achyanta Kumar SarmahShyamanta M. HazarikaSmriti Kumar Sinha","2015","http://link.springer.com/article/10.1007/s10462-013-9404-0","Article"
"The Train Benchmark: cross-technology performance evaluation of continuous model queries","Software & Systems Modeling","","","","10.1007/s10270-016-0571-8","Gábor SzárnyasBenedek IzsóIstván RáthDániel Varró","2017","http://link.springer.com/article/10.1007/s10270-016-0571-8","Article"
"DropsBox: the Dresden Open Software Toolbox","Software & Systems Modeling","","13","1","10.1007/s10270-012-0284-6","Uwe AßmannAndreas BarthoChristoff BürgerSebastian CechBirgit DemuthFlorian HeidenreichJendrik JohannesSven KarolJan PolowinskiJan ReimannJulia SchroeterMirko SeifertMichael ThieleChristian WendeClaas Wilke","2014","http://link.springer.com/article/10.1007/s10270-012-0284-6","Article"
"On process model synthesis based on event logs with noise","Automatic Control and Computer Sciences","","50","7","10.3103/S0146411616070154","A. A. MitsyukI. S. Shugurov","2016","http://link.springer.com/article/10.3103/S0146411616070154","Article"
"Using search-based algorithms for Ajax event sequence generation during testing","Empirical Software Engineering","","16","1","10.1007/s10664-010-9149-1","Alessandro MarchettoPaolo Tonella","2011","http://link.springer.com/article/10.1007/s10664-010-9149-1","Article"
"A data-centric approach to manage business processes","Computing","","98","4","10.1007/s00607-015-0440-2","Nahla HaddarMohamed TmarFaiez Gargouri","2016","http://link.springer.com/article/10.1007/s00607-015-0440-2","Article"
"Questionnaire-based variability modeling for system configuration","Software & Systems Modeling","","8","2","10.1007/s10270-008-0090-3","Marcello La RosaWil M. P. van der AalstMarlon DumasArthur H. M. ter Hofstede","2009","http://link.springer.com/article/10.1007/s10270-008-0090-3","Article"
"A knowledge-based architecture for the management of patient-focused care pathways","Applied Intelligence","","40","3","10.1007/s10489-013-0466-0","Inmaculada Sánchez-GarzónArturo González-FerrerJuan Fernández-Olivares","2014","http://link.springer.com/article/10.1007/s10489-013-0466-0","Article"
"A feature-based survey of model view approaches","Software & Systems Modeling","","","","10.1007/s10270-017-0622-9","Hugo BruneliereErik BurgerJordi CabotManuel Wimmer","2017","http://link.springer.com/article/10.1007/s10270-017-0622-9","Article"
"SOA-enabled compliance management: instrumenting, assessing, and analyzing service-based business processes","Service Oriented Computing and Applications","","7","4","10.1007/s11761-013-0129-3","Carlos RodríguezDaniel SchleicherFlorian DanielFabio CasatiFrank LeymannSebastian Wagner","2013","http://link.springer.com/article/10.1007/s11761-013-0129-3","Article"
"A generic framework: from modeling to code","Innovations in Systems and Software Engineering","","7","4","10.1007/s11334-011-0165-0","Dominique MéryNeeraj Kumar Singh","2011","http://link.springer.com/article/10.1007/s11334-011-0165-0","Article"
"Service-oriented middleware for the Future Internet: state of the art and research directions","Journal of Internet Services and Applications","","2","1","10.1007/s13174-011-0021-3","Valérie IssarnyNikolaos GeorgantasSara HachemApostolos ZarrasPanos VassiliadistMarco AutiliMarco Aurélio GerosaAmira Ben Hamida","2011","http://link.springer.com/article/10.1007/s13174-011-0021-3","Article"
"Reo + mCRL2 : A framework for model-checking dataflow in service compositions","Formal Aspects of Computing","","24","2","10.1007/s00165-011-0191-6","Natallia KokashChristian KrauseErik de Vink","2012","http://link.springer.com/article/10.1007/s00165-011-0191-6","Article"
"Model-based cross-layer monitoring and adaptation of multilayer systems","Science China Information Sciences","","56","8","10.1007/s11432-013-4915-5","Hui SongAmit RajSaeed HajebiAidan ClarkeSiobhán Clarke","2013","http://link.springer.com/article/10.1007/s11432-013-4915-5","Article"
"Fine-Grain Interoperability of Scientific Workflows in Distributed Computing Infrastructures","Journal of Grid Computing","","11","3","10.1007/s10723-013-9261-8","Kassian PlankensteinerRadu ProdanMatthias JanetschekThomas FahringerJohan MontagnatDavid RogersIan HarveyIan TaylorÁkos BalaskóPéter Kacsuk","2013","http://link.springer.com/article/10.1007/s10723-013-9261-8","Article"
"Quick fixing ATL transformations with speculative analysis","Software & Systems Modeling","","","","10.1007/s10270-016-0541-1","Jesús Sánchez CuadradoEsther GuerraJuan de Lara","2016","http://link.springer.com/article/10.1007/s10270-016-0541-1","Article"
"Systematic literature review of the objectives, techniques, kinds, and architectures of models at runtime","Software & Systems Modeling","","15","1","10.1007/s10270-013-0394-9","Michael SzvetitsUwe Zdun","2016","http://link.springer.com/article/10.1007/s10270-013-0394-9","Article"
"Spartacus attending the 2005 AAAI conference","Autonomous Robots","","22","4","10.1007/s10514-006-9014-7","F. MichaudC. CôtéD. LétourneauY. BrosseauJ.-M. ValinÉ. BeaudryC. RaïevskyA. PonchonP. MoisanP. LepageY. MorinF. GagnonP. GiguèreM.-A. RouxS. CaronP. Frenette","2007","http://link.springer.com/article/10.1007/s10514-006-9014-7","Article"
"Technologies for Web and cloud service interaction: a survey","Service Oriented Computing and Applications","","10","2","10.1007/s11761-015-0174-1","Harald Lampesberger","2016","http://link.springer.com/article/10.1007/s11761-015-0174-1","Article"
"Semantically-enabled service oriented architecture : concepts, technology and application","Service Oriented Computing and Applications","","1","2","10.1007/s11761-007-0009-9","Tomas VitvarAdrian MocanMick KerriganMichal ZarembaMaciej ZarembaMatthew MoranEmilia CimpianThomas HaselwanterDieter Fensel","2007","http://link.springer.com/article/10.1007/s11761-007-0009-9","Article"
"Domain-specific language for event-based compliance monitoring in process-driven SOAs","Service Oriented Computing and Applications","","7","1","10.1007/s11761-012-0121-3","Emmanuel MuloUwe ZdunSchahram Dustdar","2013","http://link.springer.com/article/10.1007/s11761-012-0121-3","Article"
"Case-based exploration of bidirectional transformations in QVT Relations","Software & Systems Modeling","","","","10.1007/s10270-016-0527-z","Bernhard Westfechtel","2016","http://link.springer.com/article/10.1007/s10270-016-0527-z","Article"
"Context-sensitive Web service discovery over the bipartite graph model","Frontiers of Computer Science","","7","6","10.1007/s11704-013-1256-x","Rong ZhangKoji ZettsuYutaka KidawaraYasushi KiyokiAoying Zhou","2013","http://link.springer.com/article/10.1007/s11704-013-1256-x","Article"
"Requirements reuse and requirement patterns: a state of the practice survey","Empirical Software Engineering","","22","6","10.1007/s10664-016-9485-x","Cristina PalomaresCarme QuerXavier Franch","2017","http://link.springer.com/article/10.1007/s10664-016-9485-x","Article"
"A journey to highly dynamic, self-adaptive service-based applications","Automated Software Engineering","","15","3 - 4","10.1007/s10515-008-0032-x","Elisabetta Di NittoCarlo GhezziAndreas MetzgerMike PapazoglouKlaus Pohl","2008","http://link.springer.com/article/10.1007/s10515-008-0032-x","Article"
"Genetic process mining: an experimental evaluation","Data Mining and Knowledge Discovery","","14","2","10.1007/s10618-006-0061-7","A. K. A. de MedeirosA. J. M. M. WeijtersW. M. P. van der Aalst","2007","http://link.springer.com/article/10.1007/s10618-006-0061-7","Article"
"Using ontologies to capture the semantics of a (business) process for digital preservation","International Journal on Digital Libraries","","15","2 - 4","10.1007/s00799-015-0141-7","Rudolf MayerGonçalo AntunesArtur CaetanoMarzieh BakhshandehAndreas RauberJosé Borbinha","2015","http://link.springer.com/article/10.1007/s00799-015-0141-7","Article"
"A systematic literature review of service choreography adaptation","Service Oriented Computing and Applications","","7","3","10.1007/s11761-012-0125-z","Leonardo A. F. LeiteGustavo Ansaldi OlivaGuilherme M. NogueiraMarco Aurélio GerosaFabio KonDejan S. Milojicic","2013","http://link.springer.com/article/10.1007/s11761-012-0125-z","Article"
"Model-based simulation of legal policies: framework, tool support, and validation","Software & Systems Modeling","","","","10.1007/s10270-016-0542-0","Ghanem SoltanaNicolas SannierMehrdad SabetzadehLionel C. Briand","2016","http://link.springer.com/article/10.1007/s10270-016-0542-0","Article"
"A sharing-based approach to supporting adaptation in service compositions","Computing","","95","6","10.1007/s00607-012-0230-z","Dragan IvanovićManuel CarroManuel V. Hermenegildo","2013","http://link.springer.com/article/10.1007/s00607-012-0230-z","Article"
"From types to type requirements: genericity for model-driven engineering","Software & Systems Modeling","","12","3","10.1007/s10270-011-0221-0","Juan de LaraEsther Guerra","2013","http://link.springer.com/article/10.1007/s10270-011-0221-0","Article"
"Synthesizing object life cycles from business process models","Software & Systems Modeling","","15","1","10.1007/s10270-014-0406-4","Rik EshuisPieter Van Gorp","2016","http://link.springer.com/article/10.1007/s10270-014-0406-4","Article"
"Lessons learned from building model-driven development tools","Software & Systems Modeling","","11","4","10.1007/s10270-012-0257-9","Richard F. PaigeDániel Varró","2012","http://link.springer.com/article/10.1007/s10270-012-0257-9","Article"
"Toward a seamless adaptation platform for Internetware","Science China Information Sciences","","56","8","10.1007/s11432-013-4913-7","Chun CaoPing YuHao HuJian Lv","2013","http://link.springer.com/article/10.1007/s11432-013-4913-7","Article"
"Closed-loop verification of medical devices with model abstraction and refinement","International Journal on Software Tools for Technology Transfer","","16","2","10.1007/s10009-013-0289-7","Zhihao JiangMiroslav PajicRajeev AlurRahul Mangharam","2014","http://link.springer.com/article/10.1007/s10009-013-0289-7","Article"
"“No shit” or “Oh, shit!”: responses to observations on the use of UML in professional practice","Software & Systems Modeling","","13","4","10.1007/s10270-014-0430-4","Marian Petre","2014","http://link.springer.com/article/10.1007/s10270-014-0430-4","Article"
"Event correlation for process discovery from web service interaction logs","The VLDB Journal","","20","3","10.1007/s00778-010-0203-9","Hamid Reza Motahari-NezhadRegis Saint-PaulFabio CasatiBoualem Benatallah","2011","http://link.springer.com/article/10.1007/s00778-010-0203-9","Article"
"Modeling information systems from the viewpoint of active documents","Vietnam Journal of Computer Science","","2","4","10.1007/s40595-015-0046-9","Bálint MolnárAndrás Benczúr","2015","http://link.springer.com/article/10.1007/s40595-015-0046-9","Article"
"FRWSC: a framework for robust Web service composition","Service Oriented Computing and Applications","","10","4","10.1007/s11761-016-0193-6","Mohamed El KholyAhmed El Fatatry","2016","http://link.springer.com/article/10.1007/s11761-016-0193-6","Article"
"Cloud resource allocation schemes: review, taxonomy, and opportunities","Knowledge and Information Systems","","50","2","10.1007/s10115-016-0951-y","Abdullah YousafzaiAbdullah GaniRafidah Md NoorMehdi SookhakHamid TalebianMuhammad ShirazMuhammad Khurram Khan","2017","http://link.springer.com/article/10.1007/s10115-016-0951-y","Article"
"A markov prediction model for data-driven semi-structured business processes","Knowledge and Information Systems","","42","1","10.1007/s10115-013-0697-8","Geetika T. LakshmananDavood ShamsiYurdaer N. DoganataMerve UnuvarRania Khalaf","2015","http://link.springer.com/article/10.1007/s10115-013-0697-8","Article"
"Guiding the selection of service-oriented software engineering methodologies","Service Oriented Computing and Applications","","5","4","10.1007/s11761-011-0080-0","Qing GuPatricia Lago","2011","http://link.springer.com/article/10.1007/s11761-011-0080-0","Article"
"Towards a framework for the development of adaptable service-based applications","Service Oriented Computing and Applications","","8","3","10.1007/s11761-013-0136-4","Stephen LaneQing GuPatricia LagoIta Richardson","2014","http://link.springer.com/article/10.1007/s11761-013-0136-4","Article"
"Managing the complex data center environment: an Integrated Energy-aware Framework","Computing","","98","7","10.1007/s00607-014-0405-x","Alexandre Mello FerreiraBarbara Pernici","2016","http://link.springer.com/article/10.1007/s00607-014-0405-x","Article"
"Dynamic service composition enabled by introspective agent coordination","Autonomous Agents and Multi-Agent Systems","","26","1","10.1007/s10458-011-9182-5","Yasmine CharifNicolas Sabouret","2013","http://link.springer.com/article/10.1007/s10458-011-9182-5","Article"
"Declarative workflows: Balancing between flexibility and support","Computer Science - Research and Development","","23","2","10.1007/s00450-009-0057-9","W. M. P. van der AalstM. PesicH. Schonenberg","2009","http://link.springer.com/article/10.1007/s00450-009-0057-9","Article"
"Analysis of a biphase mark protocol with Uppaal and PVS","Formal Aspects of Computing","","18","4","10.1007/s00165-006-0008-1","F. W. VaandragerA. L. de Groot","2006","http://link.springer.com/article/10.1007/s00165-006-0008-1","Article"
"Whistle for music: using melody transcription and approximate string matching for content-based query over a MIDI database","Multimedia Tools and Applications","","35","3","10.1007/s11042-007-0128-5","Hung-Che ShenChungnan Lee","2007","http://link.springer.com/article/10.1007/s11042-007-0128-5","Article"
"VPM: A visual, precise and multilevel metamodeling framework for describing mathematical domains and UML (The  Mathematics  of  Metamodeling  is  Metamodeling  Mathematics)","Software & Systems Modeling","","2","3","10.1007/s10270-003-0028-8","Dániel VarróAndrás Pataricza","2003","http://link.springer.com/article/10.1007/s10270-003-0028-8","Article"
"Architectural Requirements for Cloud Computing Systems: An Enterprise Cloud Approach","Journal of Grid Computing","","9","1","10.1007/s10723-010-9171-y","Bhaskar Prasad RimalAdmela JukanDimitrios KatsarosYves Goeleven","2011","http://link.springer.com/article/10.1007/s10723-010-9171-y","Article"
"From software verification to ‘everyware’ verification","Computer Science - Research and Development","","28","4","10.1007/s00450-013-0249-1","Marta Kwiatkowska","2013","http://link.springer.com/article/10.1007/s00450-013-0249-1","Article"
"Extracting conceptual models from user stories with Visual Narrator","Requirements Engineering","","22","3","10.1007/s00766-017-0270-1","Garm LucassenMarcel RobeerFabiano DalpiazJan Martijn E. M. van der WerfSjaak Brinkkemper","2017","http://link.springer.com/article/10.1007/s00766-017-0270-1","Article"
"A process mining-based analysis of business process work-arounds","Software & Systems Modeling","","15","2","10.1007/s10270-014-0420-6","Nesi OutmazginPnina Soffer","2016","http://link.springer.com/article/10.1007/s10270-014-0420-6","Article"
"Model mining","Journal of Intelligent Information Systems","","","","10.1007/s10844-017-0474-3","Antonio Cerone","2017","http://link.springer.com/article/10.1007/s10844-017-0474-3","Article"
"Computational Coordination Mechanisms: A tale of a struggle for flexibility","Computer Supported Cooperative Work (CSCW)","","22","4 - 6","10.1007/s10606-013-9187-5","Federico CabitzaCarla Simone","2013","http://link.springer.com/article/10.1007/s10606-013-9187-5","Article"
"Discovering colored Petri nets from event logs","International Journal on Software Tools for Technology Transfer","","10","1","10.1007/s10009-007-0051-0","A. RozinatR. S. MansM. SongW. M. P. van der Aalst","2008","http://link.springer.com/article/10.1007/s10009-007-0051-0","Article"
"Untanglings: a novel approach to analyzing concurrent systems","Formal Aspects of Computing","","27","5 - 6","10.1007/s00165-014-0329-4","Artem PolyvyanyyMarcello La RosaChun OuyangArthur H. M. ter Hofstede","2015","http://link.springer.com/article/10.1007/s00165-014-0329-4","Article"
"Engineering commitment-based business protocols with the 2CL methodology","Autonomous Agents and Multi-Agent Systems","","28","4","10.1007/s10458-013-9233-1","Matteo BaldoniCristina BaroglioElisa MarengoViviana PattiFederico Capuzzimati","2014","http://link.springer.com/article/10.1007/s10458-013-9233-1","Article"
"Regulatory compliance of business processes","AI & SOCIETY","","30","3","10.1007/s00146-014-0536-9","Jie JiangHuib AldewereldVirginia DignumShuzheng WangZiv Baida","2015","http://link.springer.com/article/10.1007/s00146-014-0536-9","Article"
"Modeling temporal aspects of sensor data for MongoDB NoSQL database","Journal of Big Data","","4","1","10.1186/s40537-017-0068-5","Nadeem Qaisar MehmoodRosario CulmoneLeonardo Mostarda","2017","http://link.springer.com/article/10.1186/s40537-017-0068-5","Article"
"Event-based run-time adaptation in communication-centric systems","Formal Aspects of Computing","","28","4","10.1007/s00165-016-0377-z","Cinzia Di GiustoJorge A. Pérez","2016","http://link.springer.com/article/10.1007/s00165-016-0377-z","Article"
"Cooperative Epistemic Work in Medical Practice: An Analysis of Physicians’ Clinical Notes","Computer Supported Cooperative Work (CSCW)","","25","6","10.1007/s10606-016-9261-x","Jørgen P. BanslerErling C. HavnKjeld SchmidtTroels MønstedHelen Høgh PetersenJesper Hastrup Svendsen","2016","http://link.springer.com/article/10.1007/s10606-016-9261-x","Article"
"Keyboards and keying An annotated bibliography of the literature from 1878 to 1999","Universal Access in the Information Society","","1","2","10.1007/s102090100012","Karl H.E. Kroemer","2001","http://link.springer.com/article/10.1007/s102090100012","Article"
"Algorithms for checking channel passing in web service choreography","Frontiers of Computer Science","","7","5","10.1007/s11704-013-1238-z","Hongli YangChao CaiLiyang PengXiangpeng ZhaoZongyan QiuShengchao Qin","2013","http://link.springer.com/article/10.1007/s11704-013-1238-z","Article"
"Satisfying agent goals by executing different task semantics: HTN, OWL-S or plug one yourself","Autonomous Agents and Multi-Agent Systems","","26","2","10.1007/s10458-011-9185-2","Erdem Eser EkinciTayfun Gökmen HalaçRıza Cenk ErdurÖvünç ÇetinIbrahim CakirlarOguz Dikenelli","2013","http://link.springer.com/article/10.1007/s10458-011-9185-2","Article"
"Web services technology in support of business transactions","Service Oriented Computing and Applications","","1","1","10.1007/s11761-007-0002-3","Michael P. PapazoglouBenedikt Kratz","2007","http://link.springer.com/article/10.1007/s11761-007-0002-3","Article"
"Concurrent abstract state machines","Acta Informatica","","53","5","10.1007/s00236-015-0249-7","Egon BörgerKlaus-Dieter Schewe","2016","http://link.springer.com/article/10.1007/s00236-015-0249-7","Article"
"Log-based mining techniques applied to Web service composition reengineering","Service Oriented Computing and Applications","","2","2 - 3","10.1007/s11761-008-0023-6","Walid GaaloulKarim BaïnaClaude Godart","2008","http://link.springer.com/article/10.1007/s11761-008-0023-6","Article"
"A market-oriented hierarchical scheduling strategy in cloud workflow systems","The Journal of Supercomputing","","63","1","10.1007/s11227-011-0578-4","Zhangjun WuXiao LiuZhiwei NiDong YuanYun Yang","2013","http://link.springer.com/article/10.1007/s11227-011-0578-4","Article"
"The ToxicFarm Integrated Cooperation Framework for Virtual Teams","Distributed and Parallel Databases","","15","1","10.1023/B:DAPD.0000009432.79864.08","Claude GodartPascal MolliGérald OsterOlivier PerrinHala Skaf-MolliPradeep RayFethi Rabhi","2004","http://link.springer.com/article/10.1023/B%3ADAPD.0000009432.79864.08","Article"
"Classification-based melody transcription","Machine Learning","","65","2 - 3","10.1007/s10994-006-8373-9","Daniel P. W. EllisGraham E. Poliner","2006","http://link.springer.com/article/10.1007/s10994-006-8373-9","Article"
"A human-centric runtime framework for mixed service-oriented systems","Distributed and Parallel Databases","","29","5 - 6","10.1007/s10619-011-7081-z","Daniel Schall","2011","http://link.springer.com/article/10.1007/s10619-011-7081-z","Article"
"Log-based transactional workflow mining","Distributed and Parallel Databases","","25","3","10.1007/s10619-009-7040-0","Walid GaaloulKhaled GaaloulSami BhiriArmin HallerManfred Hauswirth","2009","http://link.springer.com/article/10.1007/s10619-009-7040-0","Article"
"Formalization of the classification pattern: survey of classification modeling in information systems engineering","Software & Systems Modeling","","","","10.1007/s10270-016-0521-5","Chris PartridgeSergio de CesareAndrew MitchellJames Odell","2016","http://link.springer.com/article/10.1007/s10270-016-0521-5","Article"